(footprint "Diode_X1DFN1006-2" (version 20221018) (generator pcbnew)
  (layer "F.Cu")
  (attr smd)
  (fp_text reference "REF**" (at 0 -1.275) (layer "F.SilkS")
      (effects (font (size 1 1) (thickness 0.15) bold))
    (tstamp 9046ed6b-cb24-422e-b551-f6902b1a8129)
  )
  (fp_text value "X1DFN1006-2" (at 2.173 0.7968) (layer "F.Fab")
      (effects (font (size 0.32 0.32) (thickness 0.15)))
    (tstamp 3b22f520-3208-4ad9-bd38-d09806f4c029)
  )
  (fp_circle (center -0.9 0) (end -0.85 0)
    (stroke (width 0.15) (type solid)) (fill none) (layer "F.SilkS") (tstamp a3459f97-2dbc-4a7d-9421-1b0b75655472))
  (fp_line (start -0.875 -0.625) (end 0.875 -0.625)
    (stroke (width 0.05) (type solid)) (layer "F.CrtYd") (tstamp 9db0e6c7-6bbe-402a-a098-727c5fd7bdad))
  (fp_line (start -0.875 0.625) (end -0.875 -0.625)
    (stroke (width 0.05) (type solid)) (layer "F.CrtYd") (tstamp a0eeac6d-0884-4d8c-aaee-ca86d1ce3433))
  (fp_line (start 0.875 -0.625) (end 0.875 0.625)
    (stroke (width 0.05) (type solid)) (layer "F.CrtYd") (tstamp e9337ed1-24ea-41f9-bdd1-90f481525683))
  (fp_line (start 0.875 0.625) (end -0.875 0.625)
    (stroke (width 0.05) (type solid)) (layer "F.CrtYd") (tstamp a2816829-4b94-436a-a02b-00515ea50766))
  (pad "1" smd rect (at -0.35 0) (size 0.4 0.7) (layers "F.Cu" "F.Paste" "F.Mask") (tstamp b4b18ae0-ab89-4939-842b-c5cecf8d6105))
  (pad "2" smd rect (at 0.35 0) (size 0.4 0.7) (layers "F.Cu" "F.Paste" "F.Mask") (tstamp c0ebd6a7-eaf0-4975-86e4-3b59308c19cb))
  (model "${KIPRJMOD}/kicad-libraries/3dmodels/DFN100X60X45-2N.step"
    (offset (xyz 0 0 0))
    (scale (xyz 1 1 1))
    (rotate (xyz -90 0 0))
  )
)
