(footprint "LightPipe_SLP3-300-450-R"
	(version 20240108)
	(generator "pcbnew")
	(generator_version "8.0")
	(layer "F.Cu")
	(property "Reference" "REF**"
		(at 0 -5.4 0)
		(unlocked yes)
		(layer "F.SilkS")
		(uuid "6c45d55e-b2f9-4cbd-b1f5-548c1326ac8b")
		(effects
			(font
				(size 1 1)
				(thickness 0.1)
			)
		)
	)
	(property "Value" "LightPipe_SLP3-300-450-R"
		(at 0 -4.1 0)
		(unlocked yes)
		(layer "F.Fab")
		(uuid "5eb9ebe1-47ab-4fbd-a965-d2e17cfeb4cd")
		(effects
			(font
				(size 1 1)
				(thickness 0.15)
			)
		)
	)
	(property "Footprint" ""
		(at 0 0 0)
		(unlocked yes)
		(layer "F.Fab")
		(hide yes)
		(uuid "f1cda272-db1d-46ff-8643-6182f831cb67")
		(effects
			(font
				(size 1 1)
				(thickness 0.15)
			)
		)
	)
	(property "Datasheet" ""
		(at 0 0 0)
		(unlocked yes)
		(layer "F.Fab")
		(hide yes)
		(uuid "57bec048-d164-4a9a-a4bc-c5de5d3479ff")
		(effects
			(font
				(size 1 1)
				(thickness 0.15)
			)
		)
	)
	(property "Description" ""
		(at 0 0 0)
		(unlocked yes)
		(layer "F.Fab")
		(hide yes)
		(uuid "abc7ea6d-a31c-49fa-8e13-b97a66a28f39")
		(effects
			(font
				(size 1 1)
				(thickness 0.15)
			)
		)
	)
	(attr through_hole)
	(fp_line
		(start -2.4 -4)
		(end -2.4 -2)
		(stroke
			(width 0.1)
			(type default)
		)
		(layer "F.SilkS")
		(uuid "a890d16d-d5f6-48f9-aea9-e4ed87ae9dc7")
	)
	(fp_line
		(start -2.4 -4)
		(end 2.4 -4)
		(stroke
			(width 0.1)
			(type default)
		)
		(layer "F.SilkS")
		(uuid "1205dc54-20f0-487f-84af-378d1a2a0f96")
	)
	(fp_line
		(start 2.4 -4)
		(end 2.4 -2)
		(stroke
			(width 0.1)
			(type default)
		)
		(layer "F.SilkS")
		(uuid "0157e694-9123-478b-b0eb-e98bfb5e909e")
	)
	(fp_line
		(start -0.4 0)
		(end 0.4 0)
		(stroke
			(width 0.1)
			(type default)
		)
		(layer "Dwgs.User")
		(uuid "fcd0ce46-94fe-44ae-9f53-2fd0a31449b5")
	)
	(fp_line
		(start 0 -0.4)
		(end 0 0.4)
		(stroke
			(width 0.1)
			(type default)
		)
		(layer "Dwgs.User")
		(uuid "70589d5e-7fa7-49c7-a580-fe7ffbfc3209")
	)
	(fp_rect
		(start -2.25 -1.8)
		(end 2.25 1.8)
		(stroke
			(width 0.1)
			(type default)
		)
		(fill none)
		(layer "Dwgs.User")
		(uuid "e50efb47-c94e-4cb5-bcdd-791839de00ac")
	)
	(fp_line
		(start -3 -4.5)
		(end 3 -4.5)
		(stroke
			(width 0.05)
			(type default)
		)
		(layer "F.CrtYd")
		(uuid "6caf8759-5646-4cd4-81f4-f3d1453644d3")
	)
	(fp_line
		(start -3 -1.5)
		(end -3 -4.5)
		(stroke
			(width 0.05)
			(type default)
		)
		(layer "F.CrtYd")
		(uuid "f573d37a-85ef-43c0-b8bb-1ae7493aca67")
	)
	(fp_line
		(start -3 1.5)
		(end -3 3)
		(stroke
			(width 0.05)
			(type default)
		)
		(layer "F.CrtYd")
		(uuid "f51cf42f-3da3-484f-b33b-7fa8bbb2dc1d")
	)
	(fp_line
		(start -3 1.5)
		(end 3 1.5)
		(stroke
			(width 0.05)
			(type default)
		)
		(layer "F.CrtYd")
		(uuid "b45b1375-15df-416a-a13d-06ffb7eb1464")
	)
	(fp_line
		(start 3 -4.5)
		(end 3 -1.5)
		(stroke
			(width 0.05)
			(type default)
		)
		(layer "F.CrtYd")
		(uuid "f42f853d-72bc-45a0-ab2c-90f69ef58f04")
	)
	(fp_line
		(start 3 -1.5)
		(end -3 -1.5)
		(stroke
			(width 0.05)
			(type default)
		)
		(layer "F.CrtYd")
		(uuid "21797401-186c-404f-93e0-33e68bef57e4")
	)
	(fp_line
		(start 3 1.5)
		(end 3 3)
		(stroke
			(width 0.05)
			(type default)
		)
		(layer "F.CrtYd")
		(uuid "c1c9eba8-779c-4c8e-9159-112691d1de44")
	)
	(fp_line
		(start 3 3)
		(end -3 3)
		(stroke
			(width 0.05)
			(type default)
		)
		(layer "F.CrtYd")
		(uuid "ec37890b-4b6a-4c0d-a5e3-39d3f483ced3")
	)
	(fp_text user "${REFERENCE}"
		(at 0 -2.6 0)
		(unlocked yes)
		(layer "F.Fab")
		(uuid "c6390b3a-13cc-494c-885c-3e2db8627fe1")
		(effects
			(font
				(size 1 1)
				(thickness 0.15)
			)
		)
	)
	(pad "" np_thru_hole circle
		(at -1.25 -2.7)
		(size 1.3208 1.3208)
		(drill 1.3208)
		(layers "F&B.Cu" "*.Mask")
		(uuid "acbc7475-51c3-43ec-9ad8-66e0eb0526f0")
	)
	(pad "" np_thru_hole circle
		(at 1.25 -2.7)
		(size 1.3208 1.3208)
		(drill 1.3208)
		(layers "F&B.Cu" "*.Mask")
		(uuid "b873dd8b-ac17-4b25-a9ed-c92de7c49044")
	)
	(model "${KIPRJMOD}/kicad-libraries/3dmodels/SLP3-300-450-R.STEP"
		(offset
			(xyz 0 0 0)
		)
		(scale
			(xyz 1 1 1)
		)
		(rotate
			(xyz -90 0 0)
		)
	)
)
