(footprint "Magnetics_ALT3232M"
	(version 20240108)
	(generator "pcbnew")
	(generator_version "8.0")
	(layer "F.Cu")
	(property "Reference" "REF**"
		(at -0.3 -2.55 0)
		(layer "F.SilkS")
		(uuid "78c0d5bd-9838-4bff-844d-227252010d7e")
		(effects
			(font
				(size 1 1)
				(thickness 0.15)
			)
		)
	)
	(property "Value" "Magnetics_ALT3232M"
		(at -0.3 2.55 0)
		(layer "F.Fab")
		(uuid "319cca90-beee-4ec6-b3c8-c21c7242d7b0")
		(effects
			(font
				(size 1 1)
				(thickness 0.15)
			)
		)
	)
	(property "Footprint" ""
		(at 0 0 0)
		(layer "F.Fab")
		(hide yes)
		(uuid "379449c6-37af-4c53-a7ac-643369d174d2")
		(effects
			(font
				(size 1 1)
				(thickness 0.15)
			)
		)
	)
	(property "Datasheet" ""
		(at 0 0 0)
		(layer "F.Fab")
		(hide yes)
		(uuid "0a23e641-4031-4a77-aeb2-4a47c2c28a4d")
		(effects
			(font
				(size 1 1)
				(thickness 0.15)
			)
		)
	)
	(property "Description" ""
		(at 0 0 0)
		(layer "F.Fab")
		(hide yes)
		(uuid "a3488a57-bbb8-4c7a-88ca-980c0f56796f")
		(effects
			(font
				(size 1 1)
				(thickness 0.15)
			)
		)
	)
	(fp_line
		(start -2.425 1.15)
		(end -2.425 1.55)
		(stroke
			(width 0.2)
			(type default)
		)
		(layer "F.SilkS")
		(uuid "2da68a4b-9ddc-498f-8511-8f91d4eb85f9")
	)
	(fp_line
		(start -2.425 1.55)
		(end -2.225 1.35)
		(stroke
			(width 0.2)
			(type default)
		)
		(layer "F.SilkS")
		(uuid "e8c00291-0c7f-455b-830f-2adae6c7c905")
	)
	(fp_line
		(start -2.225 1.35)
		(end -2.425 1.15)
		(stroke
			(width 0.2)
			(type default)
		)
		(layer "F.SilkS")
		(uuid "f68efea0-0281-486c-b189-988eb9c7b0bc")
	)
	(fp_line
		(start -1.6 0.095)
		(end -1.6 -0.745)
		(stroke
			(width 0.2)
			(type solid)
		)
		(layer "F.SilkS")
		(uuid "4299e1d9-c077-4fb4-8cb2-5055aae76e43")
	)
	(fp_line
		(start -0.503 -1.6)
		(end 0.503 -1.6)
		(stroke
			(width 0.2)
			(type solid)
		)
		(layer "F.SilkS")
		(uuid "6a975079-3339-463c-869a-d60aa1f38a9a")
	)
	(fp_line
		(start -0.503 1.6)
		(end 0.503 1.6)
		(stroke
			(width 0.2)
			(type solid)
		)
		(layer "F.SilkS")
		(uuid "741e8812-25d7-472d-9d34-89b201ed3aa2")
	)
	(fp_line
		(start 1.6 0.745)
		(end 1.6 -0.095)
		(stroke
			(width 0.2)
			(type solid)
		)
		(layer "F.SilkS")
		(uuid "30dba902-76c2-4668-9e02-078668cd142c")
	)
	(fp_line
		(start -1.9 -1.8)
		(end 1.9 -1.8)
		(stroke
			(width 0.1)
			(type solid)
		)
		(layer "F.CrtYd")
		(uuid "b13ae024-182c-4cf3-9282-348a5b3bbccf")
	)
	(fp_line
		(start -1.9 1.8)
		(end -1.9 -1.8)
		(stroke
			(width 0.1)
			(type solid)
		)
		(layer "F.CrtYd")
		(uuid "65c319a1-3c1a-4a6d-950b-0c4af0962cd1")
	)
	(fp_line
		(start -1.9 1.8)
		(end 1.9 1.8)
		(stroke
			(width 0.1)
			(type solid)
		)
		(layer "F.CrtYd")
		(uuid "4b2f2c27-6b73-41f5-84a1-457ed5c7a16f")
	)
	(fp_line
		(start 1.9 1.8)
		(end 1.9 -1.8)
		(stroke
			(width 0.1)
			(type solid)
		)
		(layer "F.CrtYd")
		(uuid "ce552408-e751-48dd-89a1-19178795cd00")
	)
	(pad "1" smd roundrect
		(at -1.325 1.35)
		(size 0.85 0.41)
		(layers "F.Cu" "F.Paste" "F.Mask")
		(roundrect_rratio 0.25)
		(uuid "e49e87e4-636e-47e9-86d3-c0cf3a9a0985")
	)
	(pad "2" smd roundrect
		(at -1.325 0.7)
		(size 0.85 0.41)
		(layers "F.Cu" "F.Paste" "F.Mask")
		(roundrect_rratio 0.25)
		(uuid "a5e91635-d54b-49ec-b274-29c4acd7a6c5")
	)
	(pad "3" smd roundrect
		(at -1.325 -1.35)
		(size 0.85 0.41)
		(layers "F.Cu" "F.Paste" "F.Mask")
		(roundrect_rratio 0.25)
		(uuid "1e53c730-9e85-4544-aa28-991ae70fd6f3")
	)
	(pad "4" smd roundrect
		(at 1.325 -1.35)
		(size 0.85 0.41)
		(layers "F.Cu" "F.Paste" "F.Mask")
		(roundrect_rratio 0.25)
		(uuid "1a7a7e89-e44c-4649-956d-3df10d498dcf")
	)
	(pad "5" smd roundrect
		(at 1.325 -0.7)
		(size 0.85 0.41)
		(layers "F.Cu" "F.Paste" "F.Mask")
		(roundrect_rratio 0.25)
		(uuid "9e26eca7-423d-4352-8412-768bcadb91b4")
	)
	(pad "6" smd roundrect
		(at 1.325 1.35)
		(size 0.85 0.41)
		(layers "F.Cu" "F.Paste" "F.Mask")
		(roundrect_rratio 0.25)
		(uuid "c3de53c9-23af-4d9b-8301-90ca95024ed9")
	)
	(model "${KIPRJMOD}/kicad-libraries/3dmodels/alt3232m-151.step"
		(offset
			(xyz -12.9 -11.63 1.25)
		)
		(scale
			(xyz 1 1 1)
		)
		(rotate
			(xyz 0 180 0)
		)
	)
)
