(footprint "Mounting_Wuerth_WA-SMSI-M2.5_H2.5mm_9774025151" (version 20221018) (generator pcbnew)
  (layer "F.Cu")
  (descr "Mounting Hardware, inside through hole M2.5, height 2.5, Wuerth electronics 9774025243 (https://www.we-online.com/katalog/datasheet/9774025151R.pdf)")
  (tags "Mounting M2.5 9774025151R")
  (attr smd)
  (fp_text reference "REF**" (at 0 -3.85) (layer "F.SilkS")
      (effects (font (size 1 1) (thickness 0.15)))
    (tstamp 7acfae5b-fa21-4b73-b6f9-24372a3930ba)
  )
  (fp_text value "Mounting_Wuerth_WA-SMSI-M2.5_H2.5mm_9774025151" (at 0 3.6) (layer "F.Fab")
      (effects (font (size 1 1) (thickness 0.15)))
    (tstamp a404b361-6df4-4222-accf-04b59681af06)
  )
  (fp_text user "${REFERENCE}" (at 0 0) (layer "F.Fab")
      (effects (font (size 1 1) (thickness 0.15)))
    (tstamp 5e5d3724-efb7-4256-a99d-67f16274f2c3)
  )
  (fp_circle (center 0 0) (end 3.2 0)
    (stroke (width 0.05) (type solid)) (fill none) (layer "F.CrtYd") (tstamp 519c0a2b-c80a-4758-bf85-fa358a19d168))
  (fp_circle (center 0 0) (end 2.175 0)
    (stroke (width 0.1) (type solid)) (fill none) (layer "F.Fab") (tstamp 2638d725-b75a-45db-99a3-8ff9731cb25d))
  (pad "" smd custom (at -1.725 -1.725) (size 0.61 0.61) (layers "F.Paste")
    (thermal_bridge_angle 45)
    (options (clearance outline) (anchor circle))
    (primitives
      (gr_arc (start -0.147677 1.053104) (mid 0.285964 0.286792) (end 1.051968 -0.147393) (width 0.2))
      (gr_arc (start -0.240295 1.053104) (mid 0.22253 0.222946) (end 1.052531 -0.24016) (width 0.2))
      (gr_arc (start -0.332645 1.053104) (mid 0.158548 0.15965) (end 1.051583 -0.332304) (width 0.2))
      (gr_arc (start -0.424767 1.053104) (mid 0.09486 0.096059) (end 1.051446 -0.424413) (width 0.2))
      (gr_arc (start -0.516693 1.053104) (mid 0.031293 0.032346) (end 1.051645 -0.516396) (width 0.2))
      (gr_arc (start -0.608448 1.053104) (mid -0.032323 -0.031316) (end 1.051707 -0.608176) (width 0.2))
      (gr_arc (start -0.700056 1.053104) (mid -0.09616 -0.094758) (end 1.051155 -0.699693) (width 0.2))
      (gr_arc (start -0.791534 1.053104) (mid -0.160388 -0.15781) (end 1.049515 -0.790891) (width 0.2))
      (gr_arc (start -0.882896 1.053104) (mid -0.223713 -0.221764) (end 1.050388 -0.882429) (width 0.2))
      (gr_arc (start -0.974157 1.053104) (mid -0.287654 -0.2851) (end 1.049541 -0.973566) (width 0.2))
      (gr_line (start 1.053104 -0.147677) (end 1.053104 -0.974157) (width 0.2))
      (gr_line (start -0.147677 1.053104) (end -0.974157 1.053104) (width 0.2))
    ) (tstamp ab53a672-0e1e-435d-a450-f546db882741))
  (pad "" smd custom (at -1.725 1.725) (size 0.61 0.61) (layers "F.Paste")
    (thermal_bridge_angle 45)
    (options (clearance outline) (anchor circle))
    (primitives
      (gr_arc (start 1.053104 0.147677) (mid 0.286792 -0.285964) (end -0.147393 -1.051968) (width 0.2))
      (gr_arc (start 1.053104 0.240295) (mid 0.222946 -0.22253) (end -0.24016 -1.052531) (width 0.2))
      (gr_arc (start 1.053104 0.332645) (mid 0.15965 -0.158548) (end -0.332304 -1.051583) (width 0.2))
      (gr_arc (start 1.053104 0.424767) (mid 0.096059 -0.09486) (end -0.424413 -1.051446) (width 0.2))
      (gr_arc (start 1.053104 0.516693) (mid 0.032346 -0.031293) (end -0.516396 -1.051645) (width 0.2))
      (gr_arc (start 1.053104 0.608448) (mid -0.031316 0.032323) (end -0.608176 -1.051707) (width 0.2))
      (gr_arc (start 1.053104 0.700056) (mid -0.094758 0.09616) (end -0.699693 -1.051155) (width 0.2))
      (gr_arc (start 1.053104 0.791534) (mid -0.15781 0.160388) (end -0.790891 -1.049515) (width 0.2))
      (gr_arc (start 1.053104 0.882896) (mid -0.221765 0.223713) (end -0.882429 -1.050388) (width 0.2))
      (gr_arc (start 1.053104 0.974157) (mid -0.2851 0.287654) (end -0.973566 -1.049541) (width 0.2))
      (gr_line (start -0.147677 -1.053104) (end -0.974157 -1.053104) (width 0.2))
      (gr_line (start 1.053104 0.147677) (end 1.053104 0.974157) (width 0.2))
    ) (tstamp f49309fa-4e5d-4027-b80f-dee0166a3307))
  (pad "" np_thru_hole circle (at 0 0) (size 3.7 3.7) (drill 3.7) (layers "F&B.Cu" "*.Mask") (tstamp ff7af8ce-5890-4f55-8755-82f303ba66f7))
  (pad "" smd custom (at 1.725 -1.725) (size 0.61 0.61) (layers "F.Paste")
    (thermal_bridge_angle 45)
    (options (clearance outline) (anchor circle))
    (primitives
      (gr_arc (start -1.053104 -0.147677) (mid -0.286792 0.285964) (end 0.147393 1.051968) (width 0.2))
      (gr_arc (start -1.053104 -0.240295) (mid -0.222946 0.22253) (end 0.24016 1.052531) (width 0.2))
      (gr_arc (start -1.053104 -0.332645) (mid -0.15965 0.158548) (end 0.332304 1.051583) (width 0.2))
      (gr_arc (start -1.053104 -0.424767) (mid -0.096059 0.09486) (end 0.424413 1.051446) (width 0.2))
      (gr_arc (start -1.053104 -0.516693) (mid -0.032346 0.031293) (end 0.516396 1.051645) (width 0.2))
      (gr_arc (start -1.053104 -0.608448) (mid 0.031316 -0.032323) (end 0.608176 1.051707) (width 0.2))
      (gr_arc (start -1.053104 -0.700056) (mid 0.094758 -0.09616) (end 0.699693 1.051155) (width 0.2))
      (gr_arc (start -1.053104 -0.791534) (mid 0.15781 -0.160388) (end 0.790891 1.049515) (width 0.2))
      (gr_arc (start -1.053104 -0.882896) (mid 0.221764 -0.223713) (end 0.882429 1.050388) (width 0.2))
      (gr_arc (start -1.053104 -0.974157) (mid 0.2851 -0.287654) (end 0.973566 1.049541) (width 0.2))
      (gr_line (start 0.147677 1.053104) (end 0.974157 1.053104) (width 0.2))
      (gr_line (start -1.053104 -0.147677) (end -1.053104 -0.974157) (width 0.2))
    ) (tstamp 971372b8-c1f9-486b-aa6b-5f413d751e1f))
  (pad "" smd custom (at 1.725 1.725) (size 0.61 0.61) (layers "F.Paste")
    (thermal_bridge_angle 45)
    (options (clearance outline) (anchor circle))
    (primitives
      (gr_arc (start 0.147677 -1.053104) (mid -0.285964 -0.286792) (end -1.051968 0.147393) (width 0.2))
      (gr_arc (start 0.240295 -1.053104) (mid -0.22253 -0.222946) (end -1.052531 0.24016) (width 0.2))
      (gr_arc (start 0.332645 -1.053104) (mid -0.158548 -0.15965) (end -1.051583 0.332304) (width 0.2))
      (gr_arc (start 0.424767 -1.053104) (mid -0.09486 -0.096059) (end -1.051446 0.424413) (width 0.2))
      (gr_arc (start 0.516693 -1.053104) (mid -0.031293 -0.032346) (end -1.051645 0.516396) (width 0.2))
      (gr_arc (start 0.608448 -1.053104) (mid 0.032323 0.031316) (end -1.051707 0.608176) (width 0.2))
      (gr_arc (start 0.700056 -1.053104) (mid 0.09616 0.094758) (end -1.051155 0.699693) (width 0.2))
      (gr_arc (start 0.791534 -1.053104) (mid 0.160388 0.15781) (end -1.049515 0.790891) (width 0.2))
      (gr_arc (start 0.882896 -1.053104) (mid 0.223713 0.221764) (end -1.050388 0.882429) (width 0.2))
      (gr_arc (start 0.974157 -1.053104) (mid 0.287654 0.2851) (end -1.049541 0.973566) (width 0.2))
      (gr_line (start -1.053104 0.147677) (end -1.053104 0.974157) (width 0.2))
      (gr_line (start 0.147677 -1.053104) (end 0.974157 -1.053104) (width 0.2))
    ) (tstamp 054669f5-eff5-4f7d-8660-8e8f3b5e9da4))
  (pad "1" smd circle (at -2.325 0) (size 0.75 0.75) (layers "F.Cu") (tstamp b2239256-28a3-4fc5-9466-60ddfb80e9f2))
  (pad "1" smd circle (at 0 -2.325) (size 0.75 0.75) (layers "F.Cu") (tstamp f198a362-c39f-4ec7-8101-d6f5c99386ef))
  (pad "1" smd circle (at 0 2.325) (size 0.75 0.75) (layers "F.Cu") (tstamp 322fef8c-1bf6-4c4a-b598-49dca0614d8e))
  (pad "1" smd custom (at 2.075 0) (size 0.75 0.75) (layers "F.Cu" "F.Mask")
    (thermal_bridge_angle 45)
    (options (clearance outline) (anchor circle))
    (primitives
      (gr_circle (center -2.075 0) (end 0.35 0) (width 1.15) (fill none))
    ) (tstamp 59b4f7b6-c00e-4094-b34c-38bcd2dda941))
  (model "${KIPRJMOD}/kicad-libraries/3dmodels/9774025151R.stp"
    (offset (xyz 0 0 0))
    (scale (xyz 1 1 1))
    (rotate (xyz 0 0 0))
  )
)
