(footprint "Package_WSON-12-1EP_3x3mm_P0.5mm_EP1.3x2.5mm_ThermalVias"
	(version 20240108)
	(generator "pcbnew")
	(generator_version "8.0")
	(layer "F.Cu")
	(descr "WSON, 12 Pin DRR0012G (https://www.ti.com/lit/ds/symlink/lmr38015.pdf#page=37)")
	(tags "WSON NoLead DRR")
	(property "Reference" "REF**"
		(at 0 -2.45 0)
		(layer "F.SilkS")
		(uuid "72c57525-0f43-4dfa-9da2-dda2132ab6ca")
		(effects
			(font
				(size 1 1)
				(thickness 0.15)
			)
		)
	)
	(property "Value" "WSON-12-1EP_3x3mm_P0.5mm_EP1.3x2.5mm_ThermalVias"
		(at 0 2.45 0)
		(layer "F.Fab")
		(uuid "79891a2f-e86e-49d7-a6dc-858459fd52f7")
		(effects
			(font
				(size 1 1)
				(thickness 0.15)
			)
		)
	)
	(property "Footprint" ""
		(at 0 0 0)
		(layer "F.Fab")
		(hide yes)
		(uuid "367dbd23-5bb3-4d26-926c-3c8dee26c9ac")
		(effects
			(font
				(size 1.27 1.27)
				(thickness 0.15)
			)
		)
	)
	(property "Datasheet" ""
		(at 0 0 0)
		(layer "F.Fab")
		(hide yes)
		(uuid "fcb2713a-e48d-4d49-be21-89ce6fcd1741")
		(effects
			(font
				(size 1.27 1.27)
				(thickness 0.15)
			)
		)
	)
	(property "Description" ""
		(at 0 0 0)
		(layer "F.Fab")
		(hide yes)
		(uuid "c530f113-d5c1-4a90-bcad-ea2b5b549450")
		(effects
			(font
				(size 1.27 1.27)
				(thickness 0.15)
			)
		)
	)
	(attr smd)
	(fp_line
		(start -1.5 -1.635)
		(end 1.5 -1.635)
		(stroke
			(width 0.12)
			(type solid)
		)
		(layer "F.SilkS")
		(uuid "17bd4aca-105e-4634-9eb7-abbbbed5be62")
	)
	(fp_line
		(start -1.5 1.635)
		(end 1.5 1.635)
		(stroke
			(width 0.12)
			(type solid)
		)
		(layer "F.SilkS")
		(uuid "534c842c-ccd2-48c8-b47f-f49bc6f28afa")
	)
	(fp_poly
		(pts
			(xy -2.05 -1.55) (xy -2.53 -1.55) (xy -2.05 -2.03) (xy -2.05 -1.55)
		)
		(stroke
			(width 0.12)
			(type solid)
		)
		(fill solid)
		(layer "F.SilkS")
		(uuid "b296da77-1028-4e5a-95d2-88bbc9c7801e")
	)
	(fp_line
		(start -2.13 -1.75)
		(end -2.13 1.75)
		(stroke
			(width 0.05)
			(type solid)
		)
		(layer "F.CrtYd")
		(uuid "31444595-673e-4462-b594-351ade058849")
	)
	(fp_line
		(start -2.13 1.75)
		(end 2.13 1.75)
		(stroke
			(width 0.05)
			(type solid)
		)
		(layer "F.CrtYd")
		(uuid "e91da088-98c7-4b24-99c4-2b3445913e2e")
	)
	(fp_line
		(start 2.13 -1.75)
		(end -2.13 -1.75)
		(stroke
			(width 0.05)
			(type solid)
		)
		(layer "F.CrtYd")
		(uuid "056084d0-1619-43d5-832d-5bf0be00810f")
	)
	(fp_line
		(start 2.13 1.75)
		(end 2.13 -1.75)
		(stroke
			(width 0.05)
			(type solid)
		)
		(layer "F.CrtYd")
		(uuid "63d21ffc-3bd9-4afd-b97e-bcaf35fa7b48")
	)
	(fp_line
		(start -1.5 -0.75)
		(end -0.75 -1.5)
		(stroke
			(width 0.1)
			(type solid)
		)
		(layer "F.Fab")
		(uuid "0a6b1cec-7b1e-41d1-a3bc-a743e0602b47")
	)
	(fp_line
		(start -1.5 1.5)
		(end -1.5 -0.75)
		(stroke
			(width 0.1)
			(type solid)
		)
		(layer "F.Fab")
		(uuid "8d120e0a-d6ca-4819-8ad4-f5d216b461f4")
	)
	(fp_line
		(start -0.75 -1.5)
		(end 1.5 -1.5)
		(stroke
			(width 0.1)
			(type solid)
		)
		(layer "F.Fab")
		(uuid "14221240-c303-42f0-ba17-895a0ce2ae35")
	)
	(fp_line
		(start 1.5 -1.5)
		(end 1.5 1.5)
		(stroke
			(width 0.1)
			(type solid)
		)
		(layer "F.Fab")
		(uuid "25669bd2-2070-418a-9523-6c492e4fcfcf")
	)
	(fp_line
		(start 1.5 1.5)
		(end -1.5 1.5)
		(stroke
			(width 0.1)
			(type solid)
		)
		(layer "F.Fab")
		(uuid "c9cd8baa-54a3-4840-833d-46505cc4cc41")
	)
	(fp_text user "${REFERENCE}"
		(at 0 0 0)
		(layer "F.Fab")
		(uuid "039295ec-cc25-49a0-bf35-a2a264c73500")
		(effects
			(font
				(size 0.75 0.75)
				(thickness 0.11)
			)
		)
	)
	(pad "" smd roundrect
		(at -0.35 -0.6325)
		(size 0.5 1.065)
		(layers "F.Paste")
		(roundrect_rratio 0.25)
		(uuid "46c42cc8-09d9-494e-88e7-68d556ad7d00")
	)
	(pad "" smd roundrect
		(at -0.35 0.6325)
		(size 0.5 1.065)
		(layers "F.Paste")
		(roundrect_rratio 0.25)
		(uuid "4fb300d3-321d-48fd-aa42-6444b49aa0fd")
	)
	(pad "" smd roundrect
		(at 0.35 -0.6325)
		(size 0.5 1.065)
		(layers "F.Paste")
		(roundrect_rratio 0.25)
		(uuid "e209695d-51a7-447d-b74d-93865c4a63eb")
	)
	(pad "" smd roundrect
		(at 0.35 0.6325)
		(size 0.5 1.065)
		(layers "F.Paste")
		(roundrect_rratio 0.25)
		(uuid "5edc7ea3-a201-448e-8c50-3d58aa028ed7")
	)
	(pad "1" smd roundrect
		(at -1.39 -1.25)
		(size 0.62 0.25)
		(layers "F.Cu" "F.Paste" "F.Mask")
		(roundrect_rratio 0.25)
		(uuid "c3cbd3f4-c26e-4f1d-8672-b75956fba971")
	)
	(pad "2" smd roundrect
		(at -1.39 -0.75)
		(size 0.62 0.25)
		(layers "F.Cu" "F.Paste" "F.Mask")
		(roundrect_rratio 0.25)
		(uuid "a974b6f0-e151-4c91-bca0-64be24793b73")
	)
	(pad "3" smd roundrect
		(at -1.39 -0.25)
		(size 0.62 0.25)
		(layers "F.Cu" "F.Paste" "F.Mask")
		(roundrect_rratio 0.25)
		(uuid "49062415-41cd-4f22-97e7-f611387506e5")
	)
	(pad "4" smd roundrect
		(at -1.39 0.25)
		(size 0.62 0.25)
		(layers "F.Cu" "F.Paste" "F.Mask")
		(roundrect_rratio 0.25)
		(uuid "1f529527-8c85-4a85-a9d8-d9ba5ff47cb3")
	)
	(pad "5" smd roundrect
		(at -1.39 0.75)
		(size 0.62 0.25)
		(layers "F.Cu" "F.Paste" "F.Mask")
		(roundrect_rratio 0.25)
		(uuid "994c696f-678f-44b4-88ad-3ab3d0c300c9")
	)
	(pad "6" smd roundrect
		(at -1.39 1.25)
		(size 0.62 0.25)
		(layers "F.Cu" "F.Paste" "F.Mask")
		(roundrect_rratio 0.25)
		(uuid "81df6b3c-2a9e-4733-9df7-4a900285d43e")
	)
	(pad "7" smd roundrect
		(at 1.39 1.25)
		(size 0.62 0.25)
		(layers "F.Cu" "F.Paste" "F.Mask")
		(roundrect_rratio 0.25)
		(uuid "54f15bcf-8921-49d3-8400-af698ecfe3b3")
	)
	(pad "8" smd roundrect
		(at 1.39 0.75)
		(size 0.62 0.25)
		(layers "F.Cu" "F.Paste" "F.Mask")
		(roundrect_rratio 0.25)
		(uuid "9e7af609-6986-40b7-bbe1-18e93298e275")
	)
	(pad "9" smd roundrect
		(at 1.39 0.25)
		(size 0.62 0.25)
		(layers "F.Cu" "F.Paste" "F.Mask")
		(roundrect_rratio 0.25)
		(uuid "e8b3e139-bfa3-4033-94c3-abcb6d9892e3")
	)
	(pad "10" smd roundrect
		(at 1.39 -0.25)
		(size 0.62 0.25)
		(layers "F.Cu" "F.Paste" "F.Mask")
		(roundrect_rratio 0.25)
		(uuid "47bcf999-62fa-4dfa-8b24-731723d5528d")
	)
	(pad "11" smd roundrect
		(at 1.39 -0.75)
		(size 0.62 0.25)
		(layers "F.Cu" "F.Paste" "F.Mask")
		(roundrect_rratio 0.25)
		(uuid "d2b83806-62e4-47ff-83b0-db41cef16a35")
	)
	(pad "12" smd roundrect
		(at 1.39 -1.25)
		(size 0.62 0.25)
		(layers "F.Cu" "F.Paste" "F.Mask")
		(roundrect_rratio 0.25)
		(uuid "c229a326-6727-48dd-90d9-4a5fa547c88b")
	)
	(pad "13" thru_hole circle
		(at 0 -1)
		(size 0.5 0.5)
		(drill 0.2)
		(property pad_prop_heatsink)
		(layers "*.Cu")
		(remove_unused_layers no)
		(uuid "151bcd64-519b-49df-a2ff-0cfd67a1baef")
	)
	(pad "13" thru_hole circle
		(at 0 0)
		(size 0.5 0.5)
		(drill 0.2)
		(property pad_prop_heatsink)
		(layers "*.Cu")
		(remove_unused_layers no)
		(uuid "2f3d74dd-2d52-4f68-967b-b5ea1b28a691")
	)
	(pad "13" smd rect
		(at 0 0)
		(size 1.3 2.5)
		(property pad_prop_heatsink)
		(layers "F.Cu" "F.Mask")
		(zone_connect 2)
		(uuid "6d98e17a-8eab-400f-9107-827a56a8dd11")
	)
	(pad "13" smd rect
		(at 0 0)
		(size 1.3 2.5)
		(property pad_prop_heatsink)
		(layers "B.Cu")
		(zone_connect 2)
		(uuid "8595bf97-afe7-4f1a-b7ba-d3f9ad2f9721")
	)
	(pad "13" thru_hole circle
		(at 0 1)
		(size 0.5 0.5)
		(drill 0.2)
		(property pad_prop_heatsink)
		(layers "*.Cu")
		(remove_unused_layers no)
		(uuid "157d0441-fe00-4642-81e1-33bbd3e480f7")
	)
	(model "${KIPRJMOD}/kicad-libraries/3dmodels/WSON-12_3x3mm.STEP"
		(offset
			(xyz 0 0 0)
		)
		(scale
			(xyz 1 1 1)
		)
		(rotate
			(xyz -90 0 0)
		)
	)
)
