(footprint "Package_BGA_VFLGA211" (version 20221018) (generator pcbnew)
  (layer "F.Cu")
  (attr smd)
  (fp_text reference "REF**" (at -1.82507 -5.8852) (layer "F.SilkS")
      (effects (font (size 1.000031 1.000031) (thickness 0.15)))
    (tstamp b06ce446-c27e-47df-a4e3-d10b64552c26)
  )
  (fp_text value "LS1012A" (at 5.80021 5.87025) (layer "F.Fab")
      (effects (font (size 1.000898 1.000898) (thickness 0.15)))
    (tstamp c9a0dd18-d945-4bfe-8921-ced29a4068d2)
  )
  (fp_line (start -4.914 -4.914) (end -4.25 -4.914)
    (stroke (width 0.127) (type solid)) (layer "F.SilkS") (tstamp 2e642b3e-a476-4c54-9a52-dcea955640cd))
  (fp_line (start -4.914 -4.25) (end -4.914 -4.914)
    (stroke (width 0.127) (type solid)) (layer "F.SilkS") (tstamp 87371631-aa02-498a-998a-09bdb74784c1))
  (fp_line (start -4.914 4.25) (end -4.914 4.914)
    (stroke (width 0.127) (type solid)) (layer "F.SilkS") (tstamp a690fc6c-55d9-47e6-b533-faa4b67e20f3))
  (fp_line (start -4.914 4.914) (end -4.25 4.914)
    (stroke (width 0.127) (type solid)) (layer "F.SilkS") (tstamp c144caa5-b0d4-4cef-840a-d4ad178a2102))
  (fp_line (start 4.25 -4.914) (end 4.914 -4.914)
    (stroke (width 0.127) (type solid)) (layer "F.SilkS") (tstamp 5038e144-5119-49db-b6cf-f7c345f1cf03))
  (fp_line (start 4.914 -4.914) (end 4.914 -4.25)
    (stroke (width 0.127) (type solid)) (layer "F.SilkS") (tstamp ac264c30-3e9a-4be2-b97a-9949b68bd497))
  (fp_line (start 4.914 4.25) (end 4.914 4.914)
    (stroke (width 0.127) (type solid)) (layer "F.SilkS") (tstamp 54365317-1355-4216-bb75-829375abc4ec))
  (fp_line (start 4.914 4.914) (end 4.25 4.914)
    (stroke (width 0.127) (type solid)) (layer "F.SilkS") (tstamp a3e4f0ae-9f86-49e9-b386-ed8b42e012fb))
  (fp_circle (center -5.4 -4.4) (end -5.3 -4.4)
    (stroke (width 0.2) (type solid)) (fill none) (layer "F.SilkS") (tstamp 716e31c5-485f-40b5-88e3-a75900da9811))
  (fp_line (start -5.05 -5.05) (end 5.05 -5.05)
    (stroke (width 0.05) (type solid)) (layer "F.CrtYd") (tstamp efeac2a2-7682-4dc7-83ee-f6f1b23da506))
  (fp_line (start -5.05 5.05) (end -5.05 -5.05)
    (stroke (width 0.05) (type solid)) (layer "F.CrtYd") (tstamp 6a45789b-3855-401f-8139-3c734f7f52f9))
  (fp_line (start 5.05 -5.05) (end 5.05 5.05)
    (stroke (width 0.05) (type solid)) (layer "F.CrtYd") (tstamp 5fc27c35-3e1c-4f96-817c-93b5570858a6))
  (fp_line (start 5.05 5.05) (end -5.05 5.05)
    (stroke (width 0.05) (type solid)) (layer "F.CrtYd") (tstamp 6c9b793c-e74d-4754-a2c0-901e73b26f1c))
  (fp_line (start -4.8 -4.8) (end 4.8 -4.8)
    (stroke (width 0.127) (type solid)) (layer "F.Fab") (tstamp cbdcaa78-3bbc-413f-91bf-2709119373ce))
  (fp_line (start -4.8 4.8) (end -4.8 -4.8)
    (stroke (width 0.127) (type solid)) (layer "F.Fab") (tstamp 30f15357-ce1d-48b9-93dc-7d9b1b2aa048))
  (fp_line (start 4.8 -4.8) (end 4.8 4.8)
    (stroke (width 0.127) (type solid)) (layer "F.Fab") (tstamp 1e1b062d-fad0-427c-a622-c5b8a80b5268))
  (fp_line (start 4.8 4.8) (end -4.8 4.8)
    (stroke (width 0.127) (type solid)) (layer "F.Fab") (tstamp d8603679-3e7b-4337-8dbc-1827f5f54d8a))
  (fp_circle (center -4.4 -4.4) (end -4.3 -4.4)
    (stroke (width 0.2) (type solid)) (fill none) (layer "F.Fab") (tstamp b1086f75-01ba-4188-8d36-75a9e2828ca9))
  (pad "1" smd roundrect (at -4.4 -4.4 45) (size 0.45 0.45) (layers "F.Cu" "F.Paste" "F.Mask") (roundrect_rratio 0.14) (tstamp e149e0b1-47fa-4b20-b36e-2d51ee1e85c3))
  (pad "2" smd rect (at -4.53 -3.75) (size 0.26 0.22) (layers "F.Cu" "F.Paste" "F.Mask") (tstamp 81c041f3-483e-477d-9475-d108280de2a9))
  (pad "3" smd rect (at -4.53 -3.25) (size 0.26 0.22) (layers "F.Cu" "F.Paste" "F.Mask") (tstamp e68c5170-03c3-4a20-abd0-ad610c43d035))
  (pad "4" smd rect (at -4.53 -2.75) (size 0.26 0.22) (layers "F.Cu" "F.Paste" "F.Mask") (tstamp 92e8f8c3-0985-4c0d-8e38-92cbbf365409))
  (pad "5" smd rect (at -4.53 -2.25) (size 0.26 0.22) (layers "F.Cu" "F.Paste" "F.Mask") (tstamp 08e2d62f-f99a-4268-8b33-617dfcc63e75))
  (pad "6" smd rect (at -4.53 -1.75) (size 0.26 0.22) (layers "F.Cu" "F.Paste" "F.Mask") (tstamp eaef1172-3351-417c-bfc4-74a598f141cb))
  (pad "7" smd rect (at -4.53 -1.25) (size 0.26 0.22) (layers "F.Cu" "F.Paste" "F.Mask") (tstamp f6ee98b5-4773-4eeb-a825-33c1705abace))
  (pad "8" smd rect (at -4.53 -0.75) (size 0.26 0.22) (layers "F.Cu" "F.Paste" "F.Mask") (tstamp 5994a946-119f-4db4-aafe-00ae73b5b800))
  (pad "9" smd rect (at -4.53 -0.25) (size 0.26 0.22) (layers "F.Cu" "F.Paste" "F.Mask") (tstamp b680b4a7-6cb0-40b5-a7ec-a02910a0daa4))
  (pad "10" smd rect (at -4.53 0.25) (size 0.26 0.22) (layers "F.Cu" "F.Paste" "F.Mask") (tstamp c5a1761e-3391-4e74-90c9-947fd66e1fc6))
  (pad "11" smd rect (at -4.53 0.75) (size 0.26 0.22) (layers "F.Cu" "F.Paste" "F.Mask") (tstamp a1c7b1f5-f895-4192-9484-2357882c73e0))
  (pad "12" smd rect (at -4.53 1.25) (size 0.26 0.22) (layers "F.Cu" "F.Paste" "F.Mask") (tstamp 681bd495-c396-44ce-92bd-4b397cd48c04))
  (pad "13" smd rect (at -4.53 1.75) (size 0.26 0.22) (layers "F.Cu" "F.Paste" "F.Mask") (tstamp be0953c0-632d-4dd2-85e9-4d41239f22d2))
  (pad "14" smd rect (at -4.53 2.25) (size 0.26 0.22) (layers "F.Cu" "F.Paste" "F.Mask") (tstamp a3668681-09b1-48f0-a7b1-f6b24183a469))
  (pad "15" smd rect (at -4.53 2.75) (size 0.26 0.22) (layers "F.Cu" "F.Paste" "F.Mask") (tstamp 563c12e4-8f8c-446c-a11f-94f5aa93b994))
  (pad "16" smd rect (at -4.53 3.25) (size 0.26 0.22) (layers "F.Cu" "F.Paste" "F.Mask") (tstamp 3451168c-3c76-4628-aee4-7c231bd100c3))
  (pad "17" smd rect (at -4.53 3.75) (size 0.26 0.22) (layers "F.Cu" "F.Paste" "F.Mask") (tstamp ca213826-0282-4b3a-840f-ec416dc34acf))
  (pad "18" smd roundrect (at -4.435 4.435) (size 0.45 0.45) (layers "F.Cu" "F.Paste" "F.Mask") (roundrect_rratio 0.14) (tstamp e63e39d7-6ac0-4ffd-8aa3-1841a4541b55))
  (pad "19" smd rect (at -3.75 4.53 90) (size 0.26 0.22) (layers "F.Cu" "F.Paste" "F.Mask") (tstamp 6ff874d0-4ac5-414c-83a7-573eda4c7703))
  (pad "20" smd rect (at -3.25 4.53 90) (size 0.26 0.22) (layers "F.Cu" "F.Paste" "F.Mask") (tstamp 9538e4ed-27e6-4c37-b989-9859dc0d49e8))
  (pad "21" smd rect (at -2.75 4.53 90) (size 0.26 0.22) (layers "F.Cu" "F.Paste" "F.Mask") (tstamp e1105432-6a2f-45d9-8a08-47401d087cf4))
  (pad "22" smd rect (at -2.25 4.53 90) (size 0.26 0.22) (layers "F.Cu" "F.Paste" "F.Mask") (tstamp 851ab59d-1fd7-45c7-a775-29797327cafc))
  (pad "23" smd rect (at -1.75 4.53 90) (size 0.26 0.22) (layers "F.Cu" "F.Paste" "F.Mask") (tstamp 975b065a-4fee-4d11-9f2f-b1d40a3629cb))
  (pad "24" smd rect (at -1.25 4.53 90) (size 0.26 0.22) (layers "F.Cu" "F.Paste" "F.Mask") (tstamp 16ded395-a862-4198-b3af-ba8c7fb298bb))
  (pad "25" smd rect (at -0.75 4.53 90) (size 0.26 0.22) (layers "F.Cu" "F.Paste" "F.Mask") (tstamp 3934cdea-42c8-4ab1-b1be-2c4978ab08ae))
  (pad "26" smd rect (at -0.25 4.53 90) (size 0.26 0.22) (layers "F.Cu" "F.Paste" "F.Mask") (tstamp d0dfd7c1-401d-4f64-8463-f4c0813ac28f))
  (pad "27" smd rect (at 0.25 4.53 90) (size 0.26 0.22) (layers "F.Cu" "F.Paste" "F.Mask") (tstamp 23e66461-bcf2-4335-93c2-5c91dfd00187))
  (pad "28" smd rect (at 0.75 4.53 90) (size 0.26 0.22) (layers "F.Cu" "F.Paste" "F.Mask") (tstamp dd2f6b13-9e35-4a67-90ac-cf0d1ea34e5a))
  (pad "29" smd rect (at 1.25 4.53 90) (size 0.26 0.22) (layers "F.Cu" "F.Paste" "F.Mask") (tstamp 3559e287-424e-4397-b080-77c7ba6f395b))
  (pad "30" smd rect (at 1.75 4.53 90) (size 0.26 0.22) (layers "F.Cu" "F.Paste" "F.Mask") (tstamp e6521bef-4109-48f7-8b88-4121b0468927))
  (pad "31" smd rect (at 2.25 4.53 90) (size 0.26 0.22) (layers "F.Cu" "F.Paste" "F.Mask") (tstamp 646d9e91-59b4-4865-a2fc-29780ed32563))
  (pad "32" smd rect (at 2.75 4.53 90) (size 0.26 0.22) (layers "F.Cu" "F.Paste" "F.Mask") (tstamp 99030c03-63b4-49ba-b5ab-4d56974f7963))
  (pad "33" smd rect (at 3.25 4.53 90) (size 0.26 0.22) (layers "F.Cu" "F.Paste" "F.Mask") (tstamp 87c78429-be2b-40ed-8d3b-56cb9666a56f))
  (pad "34" smd rect (at 3.75 4.53 90) (size 0.26 0.22) (layers "F.Cu" "F.Paste" "F.Mask") (tstamp edc9ab4f-487a-48dc-95f2-4d87f0e9cf9e))
  (pad "35" smd roundrect (at 4.435 4.435) (size 0.45 0.45) (layers "F.Cu" "F.Paste" "F.Mask") (roundrect_rratio 0.14) (tstamp 9ff4672a-e1a4-4a1e-887d-1b9a3429d278))
  (pad "36" smd rect (at 4.53 3.75 180) (size 0.26 0.22) (layers "F.Cu" "F.Paste" "F.Mask") (tstamp 02165243-61a3-4857-84ba-71a77cb9a387))
  (pad "37" smd rect (at 4.53 3.25 180) (size 0.26 0.22) (layers "F.Cu" "F.Paste" "F.Mask") (tstamp 825c70b0-4860-42b7-97dc-86bfa46e06fd))
  (pad "38" smd rect (at 4.53 2.75 180) (size 0.26 0.22) (layers "F.Cu" "F.Paste" "F.Mask") (tstamp bbb15673-6d42-42b8-9d51-7515b3ad9ee9))
  (pad "39" smd rect (at 4.53 2.25 180) (size 0.26 0.22) (layers "F.Cu" "F.Paste" "F.Mask") (tstamp 0f3c9e3a-9c59-4881-b27a-d0e982b3ea8e))
  (pad "40" smd rect (at 4.53 1.75 180) (size 0.26 0.22) (layers "F.Cu" "F.Paste" "F.Mask") (tstamp e83e0227-ac0f-4180-82bd-68d3a7b56476))
  (pad "41" smd rect (at 4.53 1.25 180) (size 0.26 0.22) (layers "F.Cu" "F.Paste" "F.Mask") (tstamp 46cfd089-6873-4d8b-89af-02ff30e49472))
  (pad "42" smd rect (at 4.53 0.75 180) (size 0.26 0.22) (layers "F.Cu" "F.Paste" "F.Mask") (tstamp bb4f0314-c44c-4dda-b85c-537120eaae9a))
  (pad "43" smd rect (at 4.53 0.25 180) (size 0.26 0.22) (layers "F.Cu" "F.Paste" "F.Mask") (tstamp 9d984d1b-8097-407f-92f3-3ef68867dcfa))
  (pad "44" smd rect (at 4.53 -0.25 180) (size 0.26 0.22) (layers "F.Cu" "F.Paste" "F.Mask") (tstamp 68b52f01-fa04-4908-bf88-60c62ace1cfa))
  (pad "45" smd rect (at 4.53 -0.75 180) (size 0.26 0.22) (layers "F.Cu" "F.Paste" "F.Mask") (tstamp b8c83ad1-b3c9-495c-bdc6-62dead00f5ad))
  (pad "46" smd rect (at 4.53 -1.25 180) (size 0.26 0.22) (layers "F.Cu" "F.Paste" "F.Mask") (tstamp 7e969d15-6cc0-4258-8b27-586608a21adb))
  (pad "47" smd rect (at 4.53 -1.75 180) (size 0.26 0.22) (layers "F.Cu" "F.Paste" "F.Mask") (tstamp f1dd8642-b405-490b-a449-d1cc5797fda8))
  (pad "48" smd rect (at 4.53 -2.25 180) (size 0.26 0.22) (layers "F.Cu" "F.Paste" "F.Mask") (tstamp f022716e-b121-4cbf-a833-20e924070c22))
  (pad "49" smd rect (at 4.53 -2.75 180) (size 0.26 0.22) (layers "F.Cu" "F.Paste" "F.Mask") (tstamp cb868d2e-5efb-4bfb-8796-88435b326918))
  (pad "50" smd rect (at 4.53 -3.25 180) (size 0.26 0.22) (layers "F.Cu" "F.Paste" "F.Mask") (tstamp fc0a4225-db46-4d48-8163-d522602d57cd))
  (pad "51" smd rect (at 4.53 -3.75 180) (size 0.26 0.22) (layers "F.Cu" "F.Paste" "F.Mask") (tstamp 2bef89de-08c7-4a13-9d85-67948d429ca0))
  (pad "52" smd roundrect (at 4.435 -4.435) (size 0.45 0.45) (layers "F.Cu" "F.Paste" "F.Mask") (roundrect_rratio 0.14) (tstamp 6ca3c38c-4e71-4202-b6c1-1b25f04a27ae))
  (pad "53" smd rect (at 3.75 -4.53 270) (size 0.26 0.22) (layers "F.Cu" "F.Paste" "F.Mask") (tstamp 483f60da-14d7-4f88-8d01-3f9f30784c70))
  (pad "54" smd rect (at 3.25 -4.53 270) (size 0.26 0.22) (layers "F.Cu" "F.Paste" "F.Mask") (tstamp fb03d859-dcc9-4533-b352-64830e0e5423))
  (pad "55" smd rect (at 2.75 -4.53 270) (size 0.26 0.22) (layers "F.Cu" "F.Paste" "F.Mask") (tstamp 37e4dc66-4492-4061-908d-7213940a2ec3))
  (pad "56" smd rect (at 2.25 -4.53 270) (size 0.26 0.22) (layers "F.Cu" "F.Paste" "F.Mask") (tstamp 29256b3d-9450-4c0a-a4d4-911f04b9c140))
  (pad "57" smd rect (at 1.75 -4.53 270) (size 0.26 0.22) (layers "F.Cu" "F.Paste" "F.Mask") (tstamp b994142f-02ac-4881-9587-6d3df53c96d2))
  (pad "58" smd rect (at 1.25 -4.53 270) (size 0.26 0.22) (layers "F.Cu" "F.Paste" "F.Mask") (tstamp b603d26a-e034-42fb-8327-b60c5bf9cdd2))
  (pad "59" smd rect (at 0.75 -4.53 270) (size 0.26 0.22) (layers "F.Cu" "F.Paste" "F.Mask") (tstamp 2d6718e7-f18d-444d-9792-ddf1a113460c))
  (pad "60" smd rect (at 0.25 -4.53 270) (size 0.26 0.22) (layers "F.Cu" "F.Paste" "F.Mask") (tstamp f144a97d-c3f0-423f-b0a9-3f7dbc42478b))
  (pad "61" smd rect (at -0.25 -4.53 270) (size 0.26 0.22) (layers "F.Cu" "F.Paste" "F.Mask") (tstamp 71c77456-1405-42e3-95ed-69e629de0558))
  (pad "62" smd rect (at -0.75 -4.53 270) (size 0.26 0.22) (layers "F.Cu" "F.Paste" "F.Mask") (tstamp 04f5865e-f449-4408-a0c8-771cccfcb129))
  (pad "63" smd rect (at -1.25 -4.53 270) (size 0.26 0.22) (layers "F.Cu" "F.Paste" "F.Mask") (tstamp 6199bec7-e7eb-4ae0-b9ec-c563e157d635))
  (pad "64" smd rect (at -1.75 -4.53 270) (size 0.26 0.22) (layers "F.Cu" "F.Paste" "F.Mask") (tstamp e47adf3d-9c24-4345-80c9-66679cad107e))
  (pad "65" smd rect (at -2.25 -4.53 270) (size 0.26 0.22) (layers "F.Cu" "F.Paste" "F.Mask") (tstamp 7f3eb118-a20c-4239-b800-c9211c66847d))
  (pad "66" smd rect (at -2.75 -4.53 270) (size 0.26 0.22) (layers "F.Cu" "F.Paste" "F.Mask") (tstamp 213a2af1-412b-47f4-ab3b-c5f43b6be7a6))
  (pad "67" smd rect (at -3.25 -4.53 270) (size 0.26 0.22) (layers "F.Cu" "F.Paste" "F.Mask") (tstamp d2de4093-1fc2-4bc1-94b6-4d0fe3426c6f))
  (pad "68" smd rect (at -3.75 -4.53 270) (size 0.26 0.22) (layers "F.Cu" "F.Paste" "F.Mask") (tstamp 43891a3c-749f-498d-ba99-685a27689b0d))
  (pad "69" smd rect (at -4.07 -3.5) (size 0.26 0.22) (layers "F.Cu" "F.Paste" "F.Mask") (tstamp cbc539d2-6a10-4052-9b7a-f10326dcac67))
  (pad "70" smd rect (at -4.07 -3) (size 0.26 0.22) (layers "F.Cu" "F.Paste" "F.Mask") (tstamp 909b030b-fa1a-4fe8-b1ee-422b4d9e23cf))
  (pad "71" smd rect (at -4.07 -2.5) (size 0.26 0.22) (layers "F.Cu" "F.Paste" "F.Mask") (tstamp 936e2ca6-11ae-4f42-9128-52bb329f3d21))
  (pad "72" smd rect (at -4.07 -2) (size 0.26 0.22) (layers "F.Cu" "F.Paste" "F.Mask") (tstamp ebadd2a5-21ab-4a7e-b5bc-6f737367e560))
  (pad "73" smd rect (at -4.07 -1.5) (size 0.26 0.22) (layers "F.Cu" "F.Paste" "F.Mask") (tstamp 4dc6088c-89a5-4db7-b3ae-db4b6396ad49))
  (pad "74" smd rect (at -4.07 -1) (size 0.26 0.22) (layers "F.Cu" "F.Paste" "F.Mask") (tstamp 0c30a4be-5679-499f-8c5b-5f3024f9d6cf))
  (pad "75" smd rect (at -4.07 -0.5) (size 0.26 0.22) (layers "F.Cu" "F.Paste" "F.Mask") (tstamp db83d0af-e085-4050-8496-fa2ebdecbd62))
  (pad "76" smd rect (at -4.07 0) (size 0.26 0.22) (layers "F.Cu" "F.Paste" "F.Mask") (tstamp a501555e-bbc7-4b58-ad89-28a0cd3dd6d0))
  (pad "77" smd rect (at -4.07 0.5) (size 0.26 0.22) (layers "F.Cu" "F.Paste" "F.Mask") (tstamp 3cfcbcc7-4f45-46ab-82a8-c414c7972161))
  (pad "78" smd rect (at -4.07 1) (size 0.26 0.22) (layers "F.Cu" "F.Paste" "F.Mask") (tstamp 2f3deced-880d-4075-a81b-95c62da5b94d))
  (pad "79" smd rect (at -4.07 1.5) (size 0.26 0.22) (layers "F.Cu" "F.Paste" "F.Mask") (tstamp 4d609e7c-74c9-4ae9-a26d-946ff00c167d))
  (pad "80" smd rect (at -4.07 2) (size 0.26 0.22) (layers "F.Cu" "F.Paste" "F.Mask") (tstamp 786b6072-5772-4bc1-8eeb-6c4e19f2a91b))
  (pad "81" smd rect (at -4.07 2.5) (size 0.26 0.22) (layers "F.Cu" "F.Paste" "F.Mask") (tstamp 9a9f2d82-f64d-4264-8bec-c182528fc4de))
  (pad "82" smd rect (at -4.07 3) (size 0.26 0.22) (layers "F.Cu" "F.Paste" "F.Mask") (tstamp b60c50d1-225e-415c-8712-7acb5e3dc8ea))
  (pad "83" smd rect (at -4.07 3.5) (size 0.26 0.22) (layers "F.Cu" "F.Paste" "F.Mask") (tstamp 7e08f2a4-63d6-468b-bd8b-ec607077e023))
  (pad "84" smd rect (at -3.75 4.07 90) (size 0.26 0.22) (layers "F.Cu" "F.Paste" "F.Mask") (tstamp b6bcc3cf-50de-4a33-bc41-678825c1ecf2))
  (pad "85" smd rect (at -3.25 4.07 90) (size 0.26 0.22) (layers "F.Cu" "F.Paste" "F.Mask") (tstamp 5740c959-93d8-47fd-8f68-62f0109e753d))
  (pad "86" smd rect (at -2.75 4.07 90) (size 0.26 0.22) (layers "F.Cu" "F.Paste" "F.Mask") (tstamp c3c93de0-69b1-4a04-8e0b-d78caf487c63))
  (pad "87" smd rect (at -2.25 4.07 90) (size 0.26 0.22) (layers "F.Cu" "F.Paste" "F.Mask") (tstamp f9865a9f-edb8-49c7-828f-4896e1f3047a))
  (pad "88" smd rect (at -1.75 4.07 90) (size 0.26 0.22) (layers "F.Cu" "F.Paste" "F.Mask") (tstamp 55992e35-fe7b-468a-9b7a-1e4dc931b904))
  (pad "89" smd rect (at -1.25 4.07 90) (size 0.26 0.22) (layers "F.Cu" "F.Paste" "F.Mask") (tstamp a06e8e78-f567-42e6-b645-013b1073ca31))
  (pad "90" smd rect (at -0.75 4.07 90) (size 0.26 0.22) (layers "F.Cu" "F.Paste" "F.Mask") (tstamp ec9e24d8-d1c5-40e2-9812-dc315d05f470))
  (pad "91" smd rect (at -0.25 4.07 90) (size 0.26 0.22) (layers "F.Cu" "F.Paste" "F.Mask") (tstamp 9702d639-3b1f-4825-8985-b32b9008503d))
  (pad "92" smd rect (at 0.25 4.07 90) (size 0.26 0.22) (layers "F.Cu" "F.Paste" "F.Mask") (tstamp 0d35483a-0b12-46cc-b9f2-896fd6831779))
  (pad "93" smd rect (at 0.75 4.07 90) (size 0.26 0.22) (layers "F.Cu" "F.Paste" "F.Mask") (tstamp 4e66a44f-7fa6-4e16-bf9b-62ec864301a5))
  (pad "94" smd rect (at 1.25 4.07 90) (size 0.26 0.22) (layers "F.Cu" "F.Paste" "F.Mask") (tstamp 4412226e-d975-40a2-921f-502ff4129a95))
  (pad "95" smd rect (at 1.75 4.07 90) (size 0.26 0.22) (layers "F.Cu" "F.Paste" "F.Mask") (tstamp 7447a6e7-8205-46ba-afca-d0fa8f90c95a))
  (pad "96" smd rect (at 2.25 4.07 90) (size 0.26 0.22) (layers "F.Cu" "F.Paste" "F.Mask") (tstamp 53c85970-3e21-4fae-a84f-721cfc0513b5))
  (pad "97" smd rect (at 2.75 4.07 90) (size 0.26 0.22) (layers "F.Cu" "F.Paste" "F.Mask") (tstamp 34871042-9d5c-4e29-abdd-a168368c3c22))
  (pad "98" smd rect (at 3.25 4.07 90) (size 0.26 0.22) (layers "F.Cu" "F.Paste" "F.Mask") (tstamp ef1b4b98-541b-4673-a04f-2043250fc40a))
  (pad "99" smd rect (at 3.75 4.07 90) (size 0.26 0.22) (layers "F.Cu" "F.Paste" "F.Mask") (tstamp a9ec539a-d80d-40cc-803c-12b6adefe42a))
  (pad "100" smd rect (at 4.07 3.5 180) (size 0.26 0.22) (layers "F.Cu" "F.Paste" "F.Mask") (tstamp c264c438-a475-4ad4-9915-0f1e6ecf3053))
  (pad "101" smd rect (at 4.07 3 180) (size 0.26 0.22) (layers "F.Cu" "F.Paste" "F.Mask") (tstamp 2bf3f24b-fd30-41a7-a274-9b519491916b))
  (pad "102" smd rect (at 4.07 2.5 180) (size 0.26 0.22) (layers "F.Cu" "F.Paste" "F.Mask") (tstamp 4831966c-bb32-4bc8-a400-0382a02ffa1c))
  (pad "103" smd rect (at 4.07 2 180) (size 0.26 0.22) (layers "F.Cu" "F.Paste" "F.Mask") (tstamp e25ce415-914a-48fe-bf09-324317917b2e))
  (pad "104" smd rect (at 4.07 1.5 180) (size 0.26 0.22) (layers "F.Cu" "F.Paste" "F.Mask") (tstamp 4d4b0fcd-2c79-4fc3-b5fa-7a0741601344))
  (pad "105" smd rect (at 4.07 1 180) (size 0.26 0.22) (layers "F.Cu" "F.Paste" "F.Mask") (tstamp 9762c9ed-64d8-4f3e-baf6-f6ba6effc919))
  (pad "106" smd rect (at 4.07 0.5 180) (size 0.26 0.22) (layers "F.Cu" "F.Paste" "F.Mask") (tstamp 587a157d-dedf-4558-a037-1a94bbba1848))
  (pad "107" smd rect (at 4.07 0 180) (size 0.26 0.22) (layers "F.Cu" "F.Paste" "F.Mask") (tstamp c19dbe3c-ced0-48f7-a91d-777569cfb936))
  (pad "108" smd rect (at 4.07 -0.5 180) (size 0.26 0.22) (layers "F.Cu" "F.Paste" "F.Mask") (tstamp 78f88cf6-751c-4e9b-ae75-fb8b6d44ff39))
  (pad "109" smd rect (at 4.07 -1 180) (size 0.26 0.22) (layers "F.Cu" "F.Paste" "F.Mask") (tstamp 75286985-9fa5-4d30-89c5-493b6e63cd66))
  (pad "110" smd rect (at 4.07 -1.5 180) (size 0.26 0.22) (layers "F.Cu" "F.Paste" "F.Mask") (tstamp 0867287d-2e6a-4d69-a366-c29f88198f2b))
  (pad "111" smd rect (at 4.07 -2 180) (size 0.26 0.22) (layers "F.Cu" "F.Paste" "F.Mask") (tstamp afd3dbad-e7a8-4e4c-b77c-4065a69aefa2))
  (pad "112" smd rect (at 4.07 -2.5 180) (size 0.26 0.22) (layers "F.Cu" "F.Paste" "F.Mask") (tstamp 1b54105e-6590-4d26-a763-ecfcf81eedc4))
  (pad "113" smd rect (at 4.07 -3 180) (size 0.26 0.22) (layers "F.Cu" "F.Paste" "F.Mask") (tstamp 0f41a909-27c4-4be2-9d5e-9ae2108c8ff5))
  (pad "114" smd rect (at 4.07 -3.5 180) (size 0.26 0.22) (layers "F.Cu" "F.Paste" "F.Mask") (tstamp 632acde9-b7fd-4f04-8cb4-d2cbb06b3595))
  (pad "115" smd rect (at 3.75 -4.07 270) (size 0.26 0.22) (layers "F.Cu" "F.Paste" "F.Mask") (tstamp 35354519-a28c-40c4-befd-0943e98dea53))
  (pad "116" smd rect (at 3.25 -4.07 270) (size 0.26 0.22) (layers "F.Cu" "F.Paste" "F.Mask") (tstamp 38f2d955-ea7a-4a21-aba6-02ae23f1bd4a))
  (pad "117" smd rect (at 2.75 -4.07 270) (size 0.26 0.22) (layers "F.Cu" "F.Paste" "F.Mask") (tstamp 6b25f522-8e2d-4cd8-9d5d-a2b80f60133b))
  (pad "118" smd rect (at 2.25 -4.07 270) (size 0.26 0.22) (layers "F.Cu" "F.Paste" "F.Mask") (tstamp dabe541b-b164-4180-97a4-5ca761b86800))
  (pad "119" smd rect (at 1.75 -4.07 270) (size 0.26 0.22) (layers "F.Cu" "F.Paste" "F.Mask") (tstamp e12e827e-36be-4503-8eef-6fc7e8bc5d49))
  (pad "120" smd rect (at 1.25 -4.07 270) (size 0.26 0.22) (layers "F.Cu" "F.Paste" "F.Mask") (tstamp 9dab0cb7-2557-4419-963b-5ae736517f62))
  (pad "121" smd rect (at 0.75 -4.07 270) (size 0.26 0.22) (layers "F.Cu" "F.Paste" "F.Mask") (tstamp 417f13e4-c121-485a-a6b5-8b55e70350b8))
  (pad "122" smd rect (at 0.25 -4.07 270) (size 0.26 0.22) (layers "F.Cu" "F.Paste" "F.Mask") (tstamp c201e1b2-fc01-4110-bdaa-a33290468c83))
  (pad "123" smd rect (at -0.25 -4.07 270) (size 0.26 0.22) (layers "F.Cu" "F.Paste" "F.Mask") (tstamp 0088d107-13d8-496c-8da6-7bbeb9d096b0))
  (pad "124" smd rect (at -0.75 -4.07 270) (size 0.26 0.22) (layers "F.Cu" "F.Paste" "F.Mask") (tstamp 6a780180-586a-4241-a52d-dc7a5ffcc966))
  (pad "125" smd rect (at -1.25 -4.07 270) (size 0.26 0.22) (layers "F.Cu" "F.Paste" "F.Mask") (tstamp 68e09be7-3bbc-4443-a838-209ce20b2bef))
  (pad "126" smd rect (at -1.75 -4.07 270) (size 0.26 0.22) (layers "F.Cu" "F.Paste" "F.Mask") (tstamp 67621f9e-0a6a-4778-ad69-04dcf300659c))
  (pad "127" smd rect (at -2.25 -4.07 270) (size 0.26 0.22) (layers "F.Cu" "F.Paste" "F.Mask") (tstamp 128e34ce-eee7-477d-b905-a493e98db783))
  (pad "128" smd rect (at -2.75 -4.07 270) (size 0.26 0.22) (layers "F.Cu" "F.Paste" "F.Mask") (tstamp c801d42e-dd94-493e-bd2f-6c3ddad43f55))
  (pad "129" smd rect (at -3.25 -4.07 270) (size 0.26 0.22) (layers "F.Cu" "F.Paste" "F.Mask") (tstamp 3172f2e2-18d2-4a80-ae30-5707b3409798))
  (pad "130" smd rect (at -3.75 -4.07 270) (size 0.26 0.22) (layers "F.Cu" "F.Paste" "F.Mask") (tstamp 712d6a7d-2b62-464f-b745-fd2a6b0187f6))
  (pad "131" smd roundrect (at -3.2 -3.2 45) (size 0.45 0.45) (layers "F.Cu" "F.Paste" "F.Mask") (roundrect_rratio 0.14) (tstamp b3d08afa-f296-4e3b-8825-73b6331d35bf))
  (pad "132" smd roundrect (at -2.4 -3.2 45) (size 0.45 0.45) (layers "F.Cu" "F.Paste" "F.Mask") (roundrect_rratio 0.14) (tstamp 98e81e80-1f85-4152-be3f-99785ea97751))
  (pad "133" smd roundrect (at -1.6 -3.2 45) (size 0.45 0.45) (layers "F.Cu" "F.Paste" "F.Mask") (roundrect_rratio 0.14) (tstamp 842e430f-0c35-45f3-a0b5-95ae7b7ae388))
  (pad "134" smd roundrect (at -0.8 -3.2 45) (size 0.45 0.45) (layers "F.Cu" "F.Paste" "F.Mask") (roundrect_rratio 0.14) (tstamp 51c4dc0a-5b9f-4edf-a83f-4a12881e42ef))
  (pad "135" smd roundrect (at 0 -3.2 45) (size 0.45 0.45) (layers "F.Cu" "F.Paste" "F.Mask") (roundrect_rratio 0.14) (tstamp 03d88a85-11fd-47aa-954c-c318bb15294a))
  (pad "136" smd roundrect (at 0.8 -3.2 45) (size 0.45 0.45) (layers "F.Cu" "F.Paste" "F.Mask") (roundrect_rratio 0.14) (tstamp 1a2f72d1-0b36-4610-afc4-4ad1660d5d3b))
  (pad "137" smd roundrect (at 1.6 -3.2 45) (size 0.45 0.45) (layers "F.Cu" "F.Paste" "F.Mask") (roundrect_rratio 0.14) (tstamp 0dcdf1b8-13c6-48b4-bd94-5d26038ff231))
  (pad "138" smd roundrect (at 2.4 -3.2 45) (size 0.45 0.45) (layers "F.Cu" "F.Paste" "F.Mask") (roundrect_rratio 0.14) (tstamp dde3dba8-1b81-466c-93a3-c284ff4da1ef))
  (pad "139" smd roundrect (at 3.2 -3.2 45) (size 0.45 0.45) (layers "F.Cu" "F.Paste" "F.Mask") (roundrect_rratio 0.14) (tstamp 58dc14f9-c158-4824-a84e-24a6a482a7a4))
  (pad "140" smd roundrect (at -3.2 -2.4 45) (size 0.45 0.45) (layers "F.Cu" "F.Paste" "F.Mask") (roundrect_rratio 0.14) (tstamp f976e2cc-36f9-4479-a816-2c74d1d5da6f))
  (pad "141" smd roundrect (at -2.4 -2.4 45) (size 0.45 0.45) (layers "F.Cu" "F.Paste" "F.Mask") (roundrect_rratio 0.14) (tstamp b635b16e-60bb-4b3e-9fc3-47d34eef8381))
  (pad "142" smd roundrect (at -1.6 -2.4 45) (size 0.45 0.45) (layers "F.Cu" "F.Paste" "F.Mask") (roundrect_rratio 0.14) (tstamp 13475e15-f37c-4de8-857e-1722b0c39513))
  (pad "143" smd roundrect (at -0.8 -2.4 45) (size 0.45 0.45) (layers "F.Cu" "F.Paste" "F.Mask") (roundrect_rratio 0.14) (tstamp 2732632c-4768-42b6-bf7f-14643424019e))
  (pad "144" smd roundrect (at 0 -2.4 45) (size 0.45 0.45) (layers "F.Cu" "F.Paste" "F.Mask") (roundrect_rratio 0.14) (tstamp 854dd5d4-5fd2-4730-bd49-a9cd8299a065))
  (pad "145" smd roundrect (at 0.8 -2.4 45) (size 0.45 0.45) (layers "F.Cu" "F.Paste" "F.Mask") (roundrect_rratio 0.14) (tstamp 120a7b0f-ddfd-4447-85c1-35665465acdb))
  (pad "146" smd roundrect (at 1.6 -2.4 45) (size 0.45 0.45) (layers "F.Cu" "F.Paste" "F.Mask") (roundrect_rratio 0.14) (tstamp 8d55e186-3e11-40e8-a65e-b36a8a00069e))
  (pad "147" smd roundrect (at 2.4 -2.4 45) (size 0.45 0.45) (layers "F.Cu" "F.Paste" "F.Mask") (roundrect_rratio 0.14) (tstamp 48f827a8-6e22-4a2e-abdc-c2a03098d883))
  (pad "148" smd roundrect (at 3.2 -2.4 45) (size 0.45 0.45) (layers "F.Cu" "F.Paste" "F.Mask") (roundrect_rratio 0.14) (tstamp e877bf4a-4210-4bd3-b7b0-806eb4affc5b))
  (pad "149" smd roundrect (at -3.2 -1.6 45) (size 0.45 0.45) (layers "F.Cu" "F.Paste" "F.Mask") (roundrect_rratio 0.14) (tstamp cef6f603-8a0b-4dd0-af99-ebfbef7d1b4b))
  (pad "150" smd roundrect (at -2.4 -1.6 45) (size 0.45 0.45) (layers "F.Cu" "F.Paste" "F.Mask") (roundrect_rratio 0.14) (tstamp 9c8ccb2a-b1e9-4f2c-94fe-301b5975277e))
  (pad "151" smd roundrect (at -1.6 -1.6 45) (size 0.45 0.45) (layers "F.Cu" "F.Paste" "F.Mask") (roundrect_rratio 0.14) (tstamp a03e565f-d8cd-4032-aae3-b7327d4143dd))
  (pad "152" smd roundrect (at -0.8 -1.6 45) (size 0.45 0.45) (layers "F.Cu" "F.Paste" "F.Mask") (roundrect_rratio 0.14) (tstamp 5b2b5c7d-f943-4634-9f0a-e9561705c49d))
  (pad "153" smd roundrect (at 0 -1.6 45) (size 0.45 0.45) (layers "F.Cu" "F.Paste" "F.Mask") (roundrect_rratio 0.14) (tstamp c70d9ef3-bfeb-47e0-a1e1-9aeba3da7864))
  (pad "154" smd roundrect (at 0.8 -1.6 45) (size 0.45 0.45) (layers "F.Cu" "F.Paste" "F.Mask") (roundrect_rratio 0.14) (tstamp 4e3d7c0d-12e3-42f2-b944-e4bcdbbcac2a))
  (pad "155" smd roundrect (at 1.6 -1.6 45) (size 0.45 0.45) (layers "F.Cu" "F.Paste" "F.Mask") (roundrect_rratio 0.14) (tstamp aa02e544-13f5-4cf8-a5f4-3e6cda006090))
  (pad "156" smd roundrect (at 2.4 -1.6 45) (size 0.45 0.45) (layers "F.Cu" "F.Paste" "F.Mask") (roundrect_rratio 0.14) (tstamp 6a44418c-7bb4-4e99-8836-57f153c19721))
  (pad "157" smd roundrect (at 3.2 -1.6 45) (size 0.45 0.45) (layers "F.Cu" "F.Paste" "F.Mask") (roundrect_rratio 0.14) (tstamp 0147f16a-c952-4891-8f53-a9fb8cddeb8d))
  (pad "158" smd roundrect (at -3.2 -0.8 45) (size 0.45 0.45) (layers "F.Cu" "F.Paste" "F.Mask") (roundrect_rratio 0.14) (tstamp d1262c4d-2245-4c4f-8f35-7bb32cd9e21e))
  (pad "159" smd roundrect (at -2.4 -0.8 45) (size 0.45 0.45) (layers "F.Cu" "F.Paste" "F.Mask") (roundrect_rratio 0.14) (tstamp d22e95aa-f3db-4fbc-a331-048a2523233e))
  (pad "160" smd roundrect (at -1.6 -0.8 45) (size 0.45 0.45) (layers "F.Cu" "F.Paste" "F.Mask") (roundrect_rratio 0.14) (tstamp 0d0bb7b2-a6e5-46d2-9492-a1aa6e5a7b2f))
  (pad "161" smd roundrect (at -0.8 -0.8 45) (size 0.45 0.45) (layers "F.Cu" "F.Paste" "F.Mask") (roundrect_rratio 0.14) (tstamp b1169a2d-8998-4b50-a48d-c520bcc1b8e1))
  (pad "162" smd roundrect (at 0 -0.8 45) (size 0.45 0.45) (layers "F.Cu" "F.Paste" "F.Mask") (roundrect_rratio 0.14) (tstamp 81bbc3ff-3938-49ac-8297-ce2bcc9a42bd))
  (pad "163" smd roundrect (at 0.8 -0.8 45) (size 0.45 0.45) (layers "F.Cu" "F.Paste" "F.Mask") (roundrect_rratio 0.14) (tstamp 15875808-74d5-4210-b8ca-aa8fbc04ae21))
  (pad "164" smd roundrect (at 1.6 -0.8 45) (size 0.45 0.45) (layers "F.Cu" "F.Paste" "F.Mask") (roundrect_rratio 0.14) (tstamp dd00c2e1-6027-4717-b312-4fab3ee52002))
  (pad "165" smd roundrect (at 2.4 -0.8 45) (size 0.45 0.45) (layers "F.Cu" "F.Paste" "F.Mask") (roundrect_rratio 0.14) (tstamp 0a3cc030-c9dd-4d74-9d50-715ed2b361a2))
  (pad "166" smd roundrect (at 3.2 -0.8 45) (size 0.45 0.45) (layers "F.Cu" "F.Paste" "F.Mask") (roundrect_rratio 0.14) (tstamp 8322f275-268c-4e87-a69f-4cfbf05e747f))
  (pad "167" smd roundrect (at -3.2 0 45) (size 0.45 0.45) (layers "F.Cu" "F.Paste" "F.Mask") (roundrect_rratio 0.14) (tstamp b6270a28-e0d9-4655-a18a-03dbf007b940))
  (pad "168" smd roundrect (at -2.4 0 45) (size 0.45 0.45) (layers "F.Cu" "F.Paste" "F.Mask") (roundrect_rratio 0.14) (tstamp f3490fa5-5a27-423b-af60-53609669542c))
  (pad "169" smd roundrect (at -1.6 0 45) (size 0.45 0.45) (layers "F.Cu" "F.Paste" "F.Mask") (roundrect_rratio 0.14) (tstamp 1860e030-7a36-4298-b7fc-a16d48ab15ba))
  (pad "170" smd roundrect (at -0.8 0 45) (size 0.45 0.45) (layers "F.Cu" "F.Paste" "F.Mask") (roundrect_rratio 0.14) (tstamp 3dcc657b-55a1-48e0-9667-e01e7b6b08b5))
  (pad "171" smd roundrect (at 0 0 45) (size 0.45 0.45) (layers "F.Cu" "F.Paste" "F.Mask") (roundrect_rratio 0.14) (tstamp 67f6e996-3c99-493c-8f6f-e739e2ed5d7a))
  (pad "172" smd roundrect (at 0.8 0 45) (size 0.45 0.45) (layers "F.Cu" "F.Paste" "F.Mask") (roundrect_rratio 0.14) (tstamp 32667662-ae86-4904-b198-3e95f11851bf))
  (pad "173" smd roundrect (at 1.6 0 45) (size 0.45 0.45) (layers "F.Cu" "F.Paste" "F.Mask") (roundrect_rratio 0.14) (tstamp a05d7640-f2f6-4ba7-8c51-5a4af431fc13))
  (pad "174" smd roundrect (at 2.4 0 45) (size 0.45 0.45) (layers "F.Cu" "F.Paste" "F.Mask") (roundrect_rratio 0.14) (tstamp 13abf99d-5265-4779-8973-e94370fd18ff))
  (pad "175" smd roundrect (at 3.2 0 45) (size 0.45 0.45) (layers "F.Cu" "F.Paste" "F.Mask") (roundrect_rratio 0.14) (tstamp a7520ad3-0f8b-4788-92d4-8ffb277041e6))
  (pad "176" smd roundrect (at -3.2 0.8 45) (size 0.45 0.45) (layers "F.Cu" "F.Paste" "F.Mask") (roundrect_rratio 0.14) (tstamp a795f1ba-cdd5-4cc5-9a52-08586e982934))
  (pad "177" smd roundrect (at -2.4 0.8 45) (size 0.45 0.45) (layers "F.Cu" "F.Paste" "F.Mask") (roundrect_rratio 0.14) (tstamp 46918595-4a45-48e8-84c0-961b4db7f35f))
  (pad "178" smd roundrect (at -1.6 0.8 45) (size 0.45 0.45) (layers "F.Cu" "F.Paste" "F.Mask") (roundrect_rratio 0.14) (tstamp 9ccf03e8-755a-4cd9-96fc-30e1d08fa253))
  (pad "179" smd roundrect (at -0.8 0.8 45) (size 0.45 0.45) (layers "F.Cu" "F.Paste" "F.Mask") (roundrect_rratio 0.14) (tstamp 94c158d1-8503-4553-b511-bf42f506c2a8))
  (pad "180" smd roundrect (at 0 0.8 45) (size 0.45 0.45) (layers "F.Cu" "F.Paste" "F.Mask") (roundrect_rratio 0.14) (tstamp 23bb2798-d93a-4696-a962-c305c4298a0c))
  (pad "181" smd roundrect (at 0.8 0.8 45) (size 0.45 0.45) (layers "F.Cu" "F.Paste" "F.Mask") (roundrect_rratio 0.14) (tstamp 78cbdd6c-4878-4cc5-9a58-0e506478e37d))
  (pad "182" smd roundrect (at 1.6 0.8 45) (size 0.45 0.45) (layers "F.Cu" "F.Paste" "F.Mask") (roundrect_rratio 0.14) (tstamp 6e105729-aba0-497c-a99e-c32d2b3ddb6d))
  (pad "183" smd roundrect (at 2.4 0.8 45) (size 0.45 0.45) (layers "F.Cu" "F.Paste" "F.Mask") (roundrect_rratio 0.14) (tstamp 983c426c-24e0-4c65-ab69-1f1824adc5c6))
  (pad "184" smd roundrect (at 3.2 0.8 45) (size 0.45 0.45) (layers "F.Cu" "F.Paste" "F.Mask") (roundrect_rratio 0.14) (tstamp c1d83899-e380-49f9-a87d-8e78bc089ebf))
  (pad "185" smd roundrect (at -3.2 1.6 45) (size 0.45 0.45) (layers "F.Cu" "F.Paste" "F.Mask") (roundrect_rratio 0.14) (tstamp e9bb29b2-2bb9-4ea2-acd9-2bb3ca677a12))
  (pad "186" smd roundrect (at -2.4 1.6 45) (size 0.45 0.45) (layers "F.Cu" "F.Paste" "F.Mask") (roundrect_rratio 0.14) (tstamp 62c076a3-d618-44a2-9042-9a08b3576787))
  (pad "187" smd roundrect (at -1.6 1.6 45) (size 0.45 0.45) (layers "F.Cu" "F.Paste" "F.Mask") (roundrect_rratio 0.14) (tstamp da469d11-a8a4-414b-9449-d151eeaf4853))
  (pad "188" smd roundrect (at -0.8 1.6 45) (size 0.45 0.45) (layers "F.Cu" "F.Paste" "F.Mask") (roundrect_rratio 0.14) (tstamp afb8e687-4a13-41a1-b8c0-89a749e897fe))
  (pad "189" smd roundrect (at 0 1.6 45) (size 0.45 0.45) (layers "F.Cu" "F.Paste" "F.Mask") (roundrect_rratio 0.14) (tstamp 5cbb5968-dbb5-4b84-864a-ead1cacf75b9))
  (pad "190" smd roundrect (at 0.8 1.6 45) (size 0.45 0.45) (layers "F.Cu" "F.Paste" "F.Mask") (roundrect_rratio 0.14) (tstamp 3f5fe6b7-98fc-4d3e-9567-f9f7202d1455))
  (pad "191" smd roundrect (at 1.6 1.6 45) (size 0.45 0.45) (layers "F.Cu" "F.Paste" "F.Mask") (roundrect_rratio 0.14) (tstamp bb7f0588-d4d8-44bf-9ebf-3c533fe4d6ae))
  (pad "192" smd roundrect (at 2.4 1.6 45) (size 0.45 0.45) (layers "F.Cu" "F.Paste" "F.Mask") (roundrect_rratio 0.14) (tstamp f1830a1b-f0cc-47ae-a2c9-679c82032f14))
  (pad "193" smd roundrect (at 3.2 1.6 45) (size 0.45 0.45) (layers "F.Cu" "F.Paste" "F.Mask") (roundrect_rratio 0.14) (tstamp 6a955fc7-39d9-4c75-9a69-676ca8c0b9b2))
  (pad "194" smd roundrect (at -3.2 2.4 45) (size 0.45 0.45) (layers "F.Cu" "F.Paste" "F.Mask") (roundrect_rratio 0.14) (tstamp e8314017-7be6-4011-9179-37449a29b311))
  (pad "195" smd roundrect (at -2.4 2.4 45) (size 0.45 0.45) (layers "F.Cu" "F.Paste" "F.Mask") (roundrect_rratio 0.14) (tstamp e10b5627-3247-4c86-b9f6-ef474ca11543))
  (pad "196" smd roundrect (at -1.6 2.4 45) (size 0.45 0.45) (layers "F.Cu" "F.Paste" "F.Mask") (roundrect_rratio 0.14) (tstamp 746ba970-8279-4e7b-aed3-f28687777c21))
  (pad "197" smd roundrect (at -0.8 2.4 45) (size 0.45 0.45) (layers "F.Cu" "F.Paste" "F.Mask") (roundrect_rratio 0.14) (tstamp 71c31975-2c45-4d18-a25a-18e07a55d11e))
  (pad "198" smd roundrect (at 0 2.4 45) (size 0.45 0.45) (layers "F.Cu" "F.Paste" "F.Mask") (roundrect_rratio 0.14) (tstamp 10109f84-4940-47f8-8640-91f185ac9bc1))
  (pad "199" smd roundrect (at 0.8 2.4 45) (size 0.45 0.45) (layers "F.Cu" "F.Paste" "F.Mask") (roundrect_rratio 0.14) (tstamp 55e740a3-0735-4744-896e-2bf5437093b9))
  (pad "200" smd roundrect (at 1.6 2.4 45) (size 0.45 0.45) (layers "F.Cu" "F.Paste" "F.Mask") (roundrect_rratio 0.14) (tstamp f4f99e3d-7269-4f6a-a759-16ad2a258779))
  (pad "201" smd roundrect (at 2.4 2.4 45) (size 0.45 0.45) (layers "F.Cu" "F.Paste" "F.Mask") (roundrect_rratio 0.14) (tstamp c022004a-c968-410e-b59e-fbab0e561e9d))
  (pad "202" smd roundrect (at 3.2 2.4 45) (size 0.45 0.45) (layers "F.Cu" "F.Paste" "F.Mask") (roundrect_rratio 0.14) (tstamp 47baf4b1-0938-497d-88f9-671136aa8be7))
  (pad "203" smd roundrect (at -3.2 3.2 45) (size 0.45 0.45) (layers "F.Cu" "F.Paste" "F.Mask") (roundrect_rratio 0.14) (tstamp 77ed3941-d133-4aef-a9af-5a39322d14eb))
  (pad "204" smd roundrect (at -2.4 3.2 45) (size 0.45 0.45) (layers "F.Cu" "F.Paste" "F.Mask") (roundrect_rratio 0.14) (tstamp e615f7aa-337e-474d-9615-2ad82b1c44ca))
  (pad "205" smd roundrect (at -1.6 3.2 45) (size 0.45 0.45) (layers "F.Cu" "F.Paste" "F.Mask") (roundrect_rratio 0.14) (tstamp 4fb02e58-160a-4a39-9f22-d0c75e82ee72))
  (pad "206" smd roundrect (at -0.8 3.2 45) (size 0.45 0.45) (layers "F.Cu" "F.Paste" "F.Mask") (roundrect_rratio 0.14) (tstamp ef8fe2ac-6a7f-4682-9418-b801a1b10a3b))
  (pad "207" smd roundrect (at 0 3.2 45) (size 0.45 0.45) (layers "F.Cu" "F.Paste" "F.Mask") (roundrect_rratio 0.14) (tstamp 44d8279a-9cd1-4db6-856f-0363131605fc))
  (pad "208" smd roundrect (at 0.8 3.2 45) (size 0.45 0.45) (layers "F.Cu" "F.Paste" "F.Mask") (roundrect_rratio 0.14) (tstamp eb667eea-300e-4ca7-8a6f-4b00de80cd45))
  (pad "209" smd roundrect (at 1.6 3.2 45) (size 0.45 0.45) (layers "F.Cu" "F.Paste" "F.Mask") (roundrect_rratio 0.14) (tstamp 66116376-6967-4178-9f23-a26cdeafc400))
  (pad "210" smd roundrect (at 2.4 3.2 45) (size 0.45 0.45) (layers "F.Cu" "F.Paste" "F.Mask") (roundrect_rratio 0.14) (tstamp 749dfe75-c0d6-4872-9330-29c5bbcb8ff8))
  (pad "211" smd roundrect (at 3.2 3.2 45) (size 0.45 0.45) (layers "F.Cu" "F.Paste" "F.Mask") (roundrect_rratio 0.14) (tstamp 3b838d52-596d-4e4d-a6ac-e4c8e7621137))
)
