(footprint "Package_BGA-96_7.5x13.5mm_Layout9x16_P0.8mm"
	(version 20240108)
	(generator "pcbnew")
	(generator_version "8.0")
	(layer "F.Cu")
	(descr "FBGA-96, 7.5x13.5mm, 96 Ball, 9x16 Layout, 0.8mm Pitch, https://www.micron.com/-/media/client/global/documents/products/data-sheet/dram/ddr3/4gb_ddr3l.pdf#page=27")
	(tags "BGA 96 0.8")
	(property "Reference" "REF**"
		(at 0 -7.75 0)
		(layer "F.SilkS")
		(uuid "9799aa97-9ccc-4faf-bbc5-d21577abdaa2")
		(effects
			(font
				(size 1 1)
				(thickness 0.15)
			)
		)
	)
	(property "Value" "Package_BGA-96_7.5x13.5mm_Layout9x16_P0.8mm"
		(at 0 7.75 0)
		(layer "F.Fab")
		(uuid "6f84fdc3-5f89-4122-a5e5-ba2fc99b8837")
		(effects
			(font
				(size 1 1)
				(thickness 0.15)
			)
		)
	)
	(property "Footprint" ""
		(at 0 0 0)
		(unlocked yes)
		(layer "F.Fab")
		(hide yes)
		(uuid "b11c5da8-1056-43e1-acd4-38978309a64c")
		(effects
			(font
				(size 1.27 1.27)
				(thickness 0.15)
			)
		)
	)
	(property "Datasheet" ""
		(at 0 0 0)
		(unlocked yes)
		(layer "F.Fab")
		(hide yes)
		(uuid "88e7cf72-e82f-4269-bc57-e66c630fd7a8")
		(effects
			(font
				(size 1.27 1.27)
				(thickness 0.15)
			)
		)
	)
	(property "Description" ""
		(at 0 0 0)
		(unlocked yes)
		(layer "F.Fab")
		(hide yes)
		(uuid "e68f2127-2b9d-4410-aabe-75ac1394a943")
		(effects
			(font
				(size 1.27 1.27)
				(thickness 0.15)
			)
		)
	)
	(attr smd)
	(fp_line
		(start -3.86 6.86)
		(end -3.86 -5.86)
		(stroke
			(width 0.12)
			(type solid)
		)
		(layer "F.SilkS")
		(uuid "7d55b048-f757-4f96-be2d-07772fa6a32b")
	)
	(fp_line
		(start -2.86 -6.86)
		(end 3.86 -6.86)
		(stroke
			(width 0.12)
			(type solid)
		)
		(layer "F.SilkS")
		(uuid "06e9e660-82e3-49a0-af4e-e71124ee8b37")
	)
	(fp_line
		(start 3.86 -6.86)
		(end 3.86 6.86)
		(stroke
			(width 0.12)
			(type solid)
		)
		(layer "F.SilkS")
		(uuid "535d9a7a-1576-46d9-b5c1-dd7221559c34")
	)
	(fp_line
		(start 3.86 6.86)
		(end -3.86 6.86)
		(stroke
			(width 0.12)
			(type solid)
		)
		(layer "F.SilkS")
		(uuid "ae267238-d8ac-4485-aaa2-aa6831839a96")
	)
	(fp_poly
		(pts
			(xy -3.86 -6.86) (xy -4.36 -6.86) (xy -3.86 -7.36) (xy -3.86 -6.86)
		)
		(stroke
			(width 0.12)
			(type solid)
		)
		(fill solid)
		(layer "F.SilkS")
		(uuid "411f77c0-452a-44ae-a2fb-8ba53470ad79")
	)
	(fp_line
		(start -4.75 -7.75)
		(end -4.75 7.75)
		(stroke
			(width 0.05)
			(type solid)
		)
		(layer "F.CrtYd")
		(uuid "14366c9f-1599-41ad-aec4-99c4410966dc")
	)
	(fp_line
		(start -4.75 7.75)
		(end 4.75 7.75)
		(stroke
			(width 0.05)
			(type solid)
		)
		(layer "F.CrtYd")
		(uuid "81d0e8f0-71df-4ed4-9cb1-3d8e0be1d329")
	)
	(fp_line
		(start 4.75 -7.75)
		(end -4.75 -7.75)
		(stroke
			(width 0.05)
			(type solid)
		)
		(layer "F.CrtYd")
		(uuid "106171a4-ca4f-4ef7-aeb4-5a0a689ba17b")
	)
	(fp_line
		(start 4.75 7.75)
		(end 4.75 -7.75)
		(stroke
			(width 0.05)
			(type solid)
		)
		(layer "F.CrtYd")
		(uuid "30130e29-4241-43ce-9568-44f54eaae002")
	)
	(fp_line
		(start -3.75 -5.75)
		(end -2.75 -6.75)
		(stroke
			(width 0.1)
			(type solid)
		)
		(layer "F.Fab")
		(uuid "4f23815e-a615-4c5c-8e05-1abe3dcd9f26")
	)
	(fp_line
		(start -3.75 6.75)
		(end -3.75 -5.75)
		(stroke
			(width 0.1)
			(type solid)
		)
		(layer "F.Fab")
		(uuid "8be6084e-0bae-4aa2-bd44-4888619e1ac6")
	)
	(fp_line
		(start -2.75 -6.75)
		(end 3.75 -6.75)
		(stroke
			(width 0.1)
			(type solid)
		)
		(layer "F.Fab")
		(uuid "ad86682d-7f62-4778-b793-ce1d02a06c97")
	)
	(fp_line
		(start 3.75 -6.75)
		(end 3.75 6.75)
		(stroke
			(width 0.1)
			(type solid)
		)
		(layer "F.Fab")
		(uuid "545a6804-18e6-4ca2-913f-f98ef0ffdaca")
	)
	(fp_line
		(start 3.75 6.75)
		(end -3.75 6.75)
		(stroke
			(width 0.1)
			(type solid)
		)
		(layer "F.Fab")
		(uuid "9123df63-637c-4d2e-ae5a-34bfe061b342")
	)
	(fp_text user "${REFERENCE}"
		(at 0 0 0)
		(layer "F.Fab")
		(uuid "5a25963b-7a12-4519-b47e-1f5135f9aa1c")
		(effects
			(font
				(size 1 1)
				(thickness 0.15)
			)
		)
	)
	(pad "A1" smd circle
		(at -3.2 -6)
		(size 0.4 0.4)
		(property pad_prop_bga)
		(layers "F.Cu" "F.Paste" "F.Mask")
		(uuid "829bbca4-e06f-4ea0-8842-9210fff812ab")
	)
	(pad "A2" smd circle
		(at -2.4 -6)
		(size 0.4 0.4)
		(property pad_prop_bga)
		(layers "F.Cu" "F.Paste" "F.Mask")
		(uuid "572c8af0-6196-426a-8785-540188053916")
	)
	(pad "A3" smd circle
		(at -1.6 -6)
		(size 0.4 0.4)
		(property pad_prop_bga)
		(layers "F.Cu" "F.Paste" "F.Mask")
		(uuid "ddd064f8-08ca-4964-9c1d-4b7a1adf1ce2")
	)
	(pad "A7" smd circle
		(at 1.6 -6)
		(size 0.4 0.4)
		(property pad_prop_bga)
		(layers "F.Cu" "F.Paste" "F.Mask")
		(uuid "eab86613-a54a-47bd-9888-163ecf689676")
	)
	(pad "A8" smd circle
		(at 2.4 -6)
		(size 0.4 0.4)
		(property pad_prop_bga)
		(layers "F.Cu" "F.Paste" "F.Mask")
		(uuid "134c1cc9-7f70-4c95-8ea5-74a0babc3b99")
	)
	(pad "A9" smd circle
		(at 3.2 -6)
		(size 0.4 0.4)
		(property pad_prop_bga)
		(layers "F.Cu" "F.Paste" "F.Mask")
		(uuid "1599b4b4-7817-483b-bcde-3c05ca6f461a")
	)
	(pad "B1" smd circle
		(at -3.2 -5.2)
		(size 0.4 0.4)
		(property pad_prop_bga)
		(layers "F.Cu" "F.Paste" "F.Mask")
		(uuid "ea2b2bc5-5d63-47e6-ab00-41bb14769e2f")
	)
	(pad "B2" smd circle
		(at -2.4 -5.2)
		(size 0.4 0.4)
		(property pad_prop_bga)
		(layers "F.Cu" "F.Paste" "F.Mask")
		(uuid "ea4a971f-b829-47e3-93cd-6fd8c291bd21")
	)
	(pad "B3" smd circle
		(at -1.6 -5.2)
		(size 0.4 0.4)
		(property pad_prop_bga)
		(layers "F.Cu" "F.Paste" "F.Mask")
		(uuid "5f535c2c-8765-43a3-aa58-c39e0829cce4")
	)
	(pad "B7" smd circle
		(at 1.6 -5.2)
		(size 0.4 0.4)
		(property pad_prop_bga)
		(layers "F.Cu" "F.Paste" "F.Mask")
		(uuid "d03833be-20eb-48b8-a8ac-da5d5845826e")
	)
	(pad "B8" smd circle
		(at 2.4 -5.2)
		(size 0.4 0.4)
		(property pad_prop_bga)
		(layers "F.Cu" "F.Paste" "F.Mask")
		(uuid "03ef41c6-271a-407c-9f4b-0b7793cad1cf")
	)
	(pad "B9" smd circle
		(at 3.2 -5.2)
		(size 0.4 0.4)
		(property pad_prop_bga)
		(layers "F.Cu" "F.Paste" "F.Mask")
		(uuid "1bf014b1-0fec-4f4f-a5b4-4fb2f8fa06bd")
	)
	(pad "C1" smd circle
		(at -3.2 -4.4)
		(size 0.4 0.4)
		(property pad_prop_bga)
		(layers "F.Cu" "F.Paste" "F.Mask")
		(uuid "ad6c4518-4e81-46bb-9341-46a912626797")
	)
	(pad "C2" smd circle
		(at -2.4 -4.4)
		(size 0.4 0.4)
		(property pad_prop_bga)
		(layers "F.Cu" "F.Paste" "F.Mask")
		(uuid "b5b98151-65a2-4d30-a7c0-adb3b66ff967")
	)
	(pad "C3" smd circle
		(at -1.6 -4.4)
		(size 0.4 0.4)
		(property pad_prop_bga)
		(layers "F.Cu" "F.Paste" "F.Mask")
		(uuid "35c21c2c-ac80-47e8-b299-48e75365c6dd")
	)
	(pad "C7" smd circle
		(at 1.6 -4.4)
		(size 0.4 0.4)
		(property pad_prop_bga)
		(layers "F.Cu" "F.Paste" "F.Mask")
		(uuid "96d89da6-5ed2-4194-a1d6-14064870c3e1")
	)
	(pad "C8" smd circle
		(at 2.4 -4.4)
		(size 0.4 0.4)
		(property pad_prop_bga)
		(layers "F.Cu" "F.Paste" "F.Mask")
		(uuid "0ede2596-523e-4c3c-b043-66a95709104a")
	)
	(pad "C9" smd circle
		(at 3.2 -4.4)
		(size 0.4 0.4)
		(property pad_prop_bga)
		(layers "F.Cu" "F.Paste" "F.Mask")
		(uuid "1f9d5c25-1637-4d81-858a-37d3a5db413d")
	)
	(pad "D1" smd circle
		(at -3.2 -3.6)
		(size 0.4 0.4)
		(property pad_prop_bga)
		(layers "F.Cu" "F.Paste" "F.Mask")
		(uuid "921a5259-cb81-4c17-b681-6fc73411bdf8")
	)
	(pad "D2" smd circle
		(at -2.4 -3.6)
		(size 0.4 0.4)
		(property pad_prop_bga)
		(layers "F.Cu" "F.Paste" "F.Mask")
		(uuid "60833895-cc24-4603-af4f-89d69c387f6b")
	)
	(pad "D3" smd circle
		(at -1.6 -3.6)
		(size 0.4 0.4)
		(property pad_prop_bga)
		(layers "F.Cu" "F.Paste" "F.Mask")
		(uuid "d4e66e99-7f9b-4ec8-ba29-4a1b0019aede")
	)
	(pad "D7" smd circle
		(at 1.6 -3.6)
		(size 0.4 0.4)
		(property pad_prop_bga)
		(layers "F.Cu" "F.Paste" "F.Mask")
		(uuid "af7bf6b5-c869-4fd3-80c3-af14d4d5c87f")
	)
	(pad "D8" smd circle
		(at 2.4 -3.6)
		(size 0.4 0.4)
		(property pad_prop_bga)
		(layers "F.Cu" "F.Paste" "F.Mask")
		(uuid "3357b46b-5199-4201-81d3-c48059fa1195")
	)
	(pad "D9" smd circle
		(at 3.2 -3.6)
		(size 0.4 0.4)
		(property pad_prop_bga)
		(layers "F.Cu" "F.Paste" "F.Mask")
		(uuid "8bf48bf0-499b-4612-b0e2-8ed611a48424")
	)
	(pad "E1" smd circle
		(at -3.2 -2.8)
		(size 0.4 0.4)
		(property pad_prop_bga)
		(layers "F.Cu" "F.Paste" "F.Mask")
		(uuid "397b6ae8-d8a2-4d86-bcab-b4a0475d0909")
	)
	(pad "E2" smd circle
		(at -2.4 -2.8)
		(size 0.4 0.4)
		(property pad_prop_bga)
		(layers "F.Cu" "F.Paste" "F.Mask")
		(uuid "ae7712bb-0b41-4f7c-83ca-b3faa52dca93")
	)
	(pad "E3" smd circle
		(at -1.6 -2.8)
		(size 0.4 0.4)
		(property pad_prop_bga)
		(layers "F.Cu" "F.Paste" "F.Mask")
		(uuid "d9fd9d81-6a3d-49bc-a79a-beac24d7c8f2")
	)
	(pad "E7" smd circle
		(at 1.6 -2.8)
		(size 0.4 0.4)
		(property pad_prop_bga)
		(layers "F.Cu" "F.Paste" "F.Mask")
		(uuid "24b7e3c0-e330-4441-8eca-7a6140d61d1c")
	)
	(pad "E8" smd circle
		(at 2.4 -2.8)
		(size 0.4 0.4)
		(property pad_prop_bga)
		(layers "F.Cu" "F.Paste" "F.Mask")
		(uuid "5fa5aca7-e6ca-4acb-a3ac-eb46377e7327")
	)
	(pad "E9" smd circle
		(at 3.2 -2.8)
		(size 0.4 0.4)
		(property pad_prop_bga)
		(layers "F.Cu" "F.Paste" "F.Mask")
		(uuid "8a081bcc-8c47-4c27-9fb2-7f11cb699ce2")
	)
	(pad "F1" smd circle
		(at -3.2 -2)
		(size 0.4 0.4)
		(property pad_prop_bga)
		(layers "F.Cu" "F.Paste" "F.Mask")
		(uuid "54e35e54-59d5-44d1-ada3-eaf8207e322b")
	)
	(pad "F2" smd circle
		(at -2.4 -2)
		(size 0.4 0.4)
		(property pad_prop_bga)
		(layers "F.Cu" "F.Paste" "F.Mask")
		(uuid "e3bce9fe-8c61-409d-8b61-6a2d0b4b335e")
	)
	(pad "F3" smd circle
		(at -1.6 -2)
		(size 0.4 0.4)
		(property pad_prop_bga)
		(layers "F.Cu" "F.Paste" "F.Mask")
		(uuid "bfd1f8ac-12d0-4df8-be52-7ec212bb81a6")
	)
	(pad "F7" smd circle
		(at 1.6 -2)
		(size 0.4 0.4)
		(property pad_prop_bga)
		(layers "F.Cu" "F.Paste" "F.Mask")
		(uuid "3fd86b71-5bf2-4958-9f06-fa951cf0176a")
	)
	(pad "F8" smd circle
		(at 2.4 -2)
		(size 0.4 0.4)
		(property pad_prop_bga)
		(layers "F.Cu" "F.Paste" "F.Mask")
		(uuid "d15c3436-97b6-4eca-92b4-27e1fff31c48")
	)
	(pad "F9" smd circle
		(at 3.2 -2)
		(size 0.4 0.4)
		(property pad_prop_bga)
		(layers "F.Cu" "F.Paste" "F.Mask")
		(uuid "05e1179f-4f0f-464a-b10d-15a9e1583b9d")
	)
	(pad "G1" smd circle
		(at -3.2 -1.2)
		(size 0.4 0.4)
		(property pad_prop_bga)
		(layers "F.Cu" "F.Paste" "F.Mask")
		(uuid "4790a1e7-53c3-4865-b5eb-2209b2801b32")
	)
	(pad "G2" smd circle
		(at -2.4 -1.2)
		(size 0.4 0.4)
		(property pad_prop_bga)
		(layers "F.Cu" "F.Paste" "F.Mask")
		(uuid "6739916b-836f-4f1d-9191-2f8ca9b73a1a")
	)
	(pad "G3" smd circle
		(at -1.6 -1.2)
		(size 0.4 0.4)
		(property pad_prop_bga)
		(layers "F.Cu" "F.Paste" "F.Mask")
		(uuid "83ca59ab-f28d-4608-a244-1aea3e865324")
	)
	(pad "G7" smd circle
		(at 1.6 -1.2)
		(size 0.4 0.4)
		(property pad_prop_bga)
		(layers "F.Cu" "F.Paste" "F.Mask")
		(uuid "0b083b10-f1cd-42a5-b169-5fa203631757")
	)
	(pad "G8" smd circle
		(at 2.4 -1.2)
		(size 0.4 0.4)
		(property pad_prop_bga)
		(layers "F.Cu" "F.Paste" "F.Mask")
		(uuid "6af73004-bf47-4369-9600-adea29dbf861")
	)
	(pad "G9" smd circle
		(at 3.2 -1.2)
		(size 0.4 0.4)
		(property pad_prop_bga)
		(layers "F.Cu" "F.Paste" "F.Mask")
		(uuid "480eb0f0-23c7-4f2e-b9b1-abb69acb8d89")
	)
	(pad "H1" smd circle
		(at -3.2 -0.4)
		(size 0.4 0.4)
		(property pad_prop_bga)
		(layers "F.Cu" "F.Paste" "F.Mask")
		(uuid "67f72681-ec18-4ff8-a452-6dab4f640c71")
	)
	(pad "H2" smd circle
		(at -2.4 -0.4)
		(size 0.4 0.4)
		(property pad_prop_bga)
		(layers "F.Cu" "F.Paste" "F.Mask")
		(uuid "2361ea0b-4f0e-4773-b875-2f99ceeac4ab")
	)
	(pad "H3" smd circle
		(at -1.6 -0.4)
		(size 0.4 0.4)
		(property pad_prop_bga)
		(layers "F.Cu" "F.Paste" "F.Mask")
		(uuid "736f535a-c043-4650-abcc-5280886429e0")
	)
	(pad "H7" smd circle
		(at 1.6 -0.4)
		(size 0.4 0.4)
		(property pad_prop_bga)
		(layers "F.Cu" "F.Paste" "F.Mask")
		(uuid "9dcb0e03-ee7b-4a82-a3b0-601f74b98346")
	)
	(pad "H8" smd circle
		(at 2.4 -0.4)
		(size 0.4 0.4)
		(property pad_prop_bga)
		(layers "F.Cu" "F.Paste" "F.Mask")
		(uuid "f56414bd-441d-46c5-85a0-4348a74ed493")
	)
	(pad "H9" smd circle
		(at 3.2 -0.4)
		(size 0.4 0.4)
		(property pad_prop_bga)
		(layers "F.Cu" "F.Paste" "F.Mask")
		(uuid "8dab1f44-7c9b-478e-b14f-df17ecefd839")
	)
	(pad "J1" smd circle
		(at -3.2 0.4)
		(size 0.4 0.4)
		(property pad_prop_bga)
		(layers "F.Cu" "F.Paste" "F.Mask")
		(uuid "25f34c38-985a-48c3-a7d4-869b26c2cbb5")
	)
	(pad "J2" smd circle
		(at -2.4 0.4)
		(size 0.4 0.4)
		(property pad_prop_bga)
		(layers "F.Cu" "F.Paste" "F.Mask")
		(uuid "f75e28ef-b59b-4614-847a-f4f8068f4fbe")
	)
	(pad "J3" smd circle
		(at -1.6 0.4)
		(size 0.4 0.4)
		(property pad_prop_bga)
		(layers "F.Cu" "F.Paste" "F.Mask")
		(uuid "35f5867c-9001-4136-a9ee-481e11fb66d1")
	)
	(pad "J7" smd circle
		(at 1.6 0.4)
		(size 0.4 0.4)
		(property pad_prop_bga)
		(layers "F.Cu" "F.Paste" "F.Mask")
		(uuid "cc931d1e-76b9-48d7-85ce-2898bf109cc7")
	)
	(pad "J8" smd circle
		(at 2.4 0.4)
		(size 0.4 0.4)
		(property pad_prop_bga)
		(layers "F.Cu" "F.Paste" "F.Mask")
		(uuid "2a69c3f5-f3e7-44a1-9845-926c3a10aa22")
	)
	(pad "J9" smd circle
		(at 3.2 0.4)
		(size 0.4 0.4)
		(property pad_prop_bga)
		(layers "F.Cu" "F.Paste" "F.Mask")
		(uuid "ac6767e1-b763-4b9f-bdfd-e58e908b9743")
	)
	(pad "K1" smd circle
		(at -3.2 1.2)
		(size 0.4 0.4)
		(property pad_prop_bga)
		(layers "F.Cu" "F.Paste" "F.Mask")
		(uuid "a50b1b57-d557-4d19-b639-685cf675533c")
	)
	(pad "K2" smd circle
		(at -2.4 1.2)
		(size 0.4 0.4)
		(property pad_prop_bga)
		(layers "F.Cu" "F.Paste" "F.Mask")
		(uuid "5cf454b0-4a8a-4c44-a08e-927da2b3ed33")
	)
	(pad "K3" smd circle
		(at -1.6 1.2)
		(size 0.4 0.4)
		(property pad_prop_bga)
		(layers "F.Cu" "F.Paste" "F.Mask")
		(uuid "d78fe9d3-817f-4d1f-b751-0914cc0bcd47")
	)
	(pad "K7" smd circle
		(at 1.6 1.2)
		(size 0.4 0.4)
		(property pad_prop_bga)
		(layers "F.Cu" "F.Paste" "F.Mask")
		(uuid "caf9bead-4187-4ce6-8ba4-be7dbef42645")
	)
	(pad "K8" smd circle
		(at 2.4 1.2)
		(size 0.4 0.4)
		(property pad_prop_bga)
		(layers "F.Cu" "F.Paste" "F.Mask")
		(uuid "9514f40b-09c9-471e-8544-63883fc75fe2")
	)
	(pad "K9" smd circle
		(at 3.2 1.2)
		(size 0.4 0.4)
		(property pad_prop_bga)
		(layers "F.Cu" "F.Paste" "F.Mask")
		(uuid "744dd3ee-2aff-4858-ae16-512c8cbaf2db")
	)
	(pad "L1" smd circle
		(at -3.2 2)
		(size 0.4 0.4)
		(property pad_prop_bga)
		(layers "F.Cu" "F.Paste" "F.Mask")
		(uuid "d338f046-478b-473e-9ad9-862028dae3be")
	)
	(pad "L2" smd circle
		(at -2.4 2)
		(size 0.4 0.4)
		(property pad_prop_bga)
		(layers "F.Cu" "F.Paste" "F.Mask")
		(uuid "b896dd21-0152-4a0d-946d-efc439a7d361")
	)
	(pad "L3" smd circle
		(at -1.6 2)
		(size 0.4 0.4)
		(property pad_prop_bga)
		(layers "F.Cu" "F.Paste" "F.Mask")
		(uuid "2c41cfef-1b3f-4778-95b3-f7ac60a626bb")
	)
	(pad "L7" smd circle
		(at 1.6 2)
		(size 0.4 0.4)
		(property pad_prop_bga)
		(layers "F.Cu" "F.Paste" "F.Mask")
		(uuid "8d96cbbc-5f3a-41ed-a83d-dc9d6d49632b")
	)
	(pad "L8" smd circle
		(at 2.4 2)
		(size 0.4 0.4)
		(property pad_prop_bga)
		(layers "F.Cu" "F.Paste" "F.Mask")
		(uuid "10f71e42-d9ee-4b51-9e17-632be70269fb")
	)
	(pad "L9" smd circle
		(at 3.2 2)
		(size 0.4 0.4)
		(property pad_prop_bga)
		(layers "F.Cu" "F.Paste" "F.Mask")
		(uuid "491eda8e-f898-4e21-98d5-d02d6cce18c9")
	)
	(pad "M1" smd circle
		(at -3.2 2.8)
		(size 0.4 0.4)
		(property pad_prop_bga)
		(layers "F.Cu" "F.Paste" "F.Mask")
		(uuid "4991e734-dbbc-4c6d-816f-fa4da5dea29b")
	)
	(pad "M2" smd circle
		(at -2.4 2.8)
		(size 0.4 0.4)
		(property pad_prop_bga)
		(layers "F.Cu" "F.Paste" "F.Mask")
		(uuid "67cc4bcd-a98e-497f-824c-dcd4f7e82dee")
	)
	(pad "M3" smd circle
		(at -1.6 2.8)
		(size 0.4 0.4)
		(property pad_prop_bga)
		(layers "F.Cu" "F.Paste" "F.Mask")
		(uuid "f5d233ff-9fd7-4802-a0d5-c126a61cb5cc")
	)
	(pad "M7" smd circle
		(at 1.6 2.8)
		(size 0.4 0.4)
		(property pad_prop_bga)
		(layers "F.Cu" "F.Paste" "F.Mask")
		(uuid "aa264f3a-59f1-470f-9866-5c059b4bf63d")
	)
	(pad "M8" smd circle
		(at 2.4 2.8)
		(size 0.4 0.4)
		(property pad_prop_bga)
		(layers "F.Cu" "F.Paste" "F.Mask")
		(uuid "b9132a09-3e57-476f-8c1e-833cb60d5a1e")
	)
	(pad "M9" smd circle
		(at 3.2 2.8)
		(size 0.4 0.4)
		(property pad_prop_bga)
		(layers "F.Cu" "F.Paste" "F.Mask")
		(uuid "239f6030-b1c5-43ca-aadd-ad42d0647455")
	)
	(pad "N1" smd circle
		(at -3.2 3.6)
		(size 0.4 0.4)
		(property pad_prop_bga)
		(layers "F.Cu" "F.Paste" "F.Mask")
		(uuid "cf4915ba-7759-41ff-8a05-261421c386e5")
	)
	(pad "N2" smd circle
		(at -2.4 3.6)
		(size 0.4 0.4)
		(property pad_prop_bga)
		(layers "F.Cu" "F.Paste" "F.Mask")
		(uuid "e65ea2cf-1686-4de1-b75f-b962b079971b")
	)
	(pad "N3" smd circle
		(at -1.6 3.6)
		(size 0.4 0.4)
		(property pad_prop_bga)
		(layers "F.Cu" "F.Paste" "F.Mask")
		(uuid "716ffd54-514a-4a27-8d15-a63f43646837")
	)
	(pad "N7" smd circle
		(at 1.6 3.6)
		(size 0.4 0.4)
		(property pad_prop_bga)
		(layers "F.Cu" "F.Paste" "F.Mask")
		(uuid "b07863bb-65af-40bb-bf37-68ec06e0de4c")
	)
	(pad "N8" smd circle
		(at 2.4 3.6)
		(size 0.4 0.4)
		(property pad_prop_bga)
		(layers "F.Cu" "F.Paste" "F.Mask")
		(uuid "36d12d65-76b5-4208-92e9-2c22e3768cfa")
	)
	(pad "N9" smd circle
		(at 3.2 3.6)
		(size 0.4 0.4)
		(property pad_prop_bga)
		(layers "F.Cu" "F.Paste" "F.Mask")
		(uuid "409650fd-e39c-442f-975d-aaab7ccdc536")
	)
	(pad "P1" smd circle
		(at -3.2 4.4)
		(size 0.4 0.4)
		(property pad_prop_bga)
		(layers "F.Cu" "F.Paste" "F.Mask")
		(uuid "3714ca06-2a5f-43aa-9630-4cec67e51871")
	)
	(pad "P2" smd circle
		(at -2.4 4.4)
		(size 0.4 0.4)
		(property pad_prop_bga)
		(layers "F.Cu" "F.Paste" "F.Mask")
		(uuid "bc1d2bb8-dbce-485e-9403-8d8b6a3502a4")
	)
	(pad "P3" smd circle
		(at -1.6 4.4)
		(size 0.4 0.4)
		(property pad_prop_bga)
		(layers "F.Cu" "F.Paste" "F.Mask")
		(uuid "b439ca5f-efef-493a-b8aa-a7ce9bf394cf")
	)
	(pad "P7" smd circle
		(at 1.6 4.4)
		(size 0.4 0.4)
		(property pad_prop_bga)
		(layers "F.Cu" "F.Paste" "F.Mask")
		(uuid "cec78391-6141-4c7a-83dd-9f7f1ef2fe4f")
	)
	(pad "P8" smd circle
		(at 2.4 4.4)
		(size 0.4 0.4)
		(property pad_prop_bga)
		(layers "F.Cu" "F.Paste" "F.Mask")
		(uuid "fa3f044c-33e6-48b8-84db-4e6545342af8")
	)
	(pad "P9" smd circle
		(at 3.2 4.4)
		(size 0.4 0.4)
		(property pad_prop_bga)
		(layers "F.Cu" "F.Paste" "F.Mask")
		(uuid "df5e179b-35d8-46e1-a296-ad31f179c794")
	)
	(pad "R1" smd circle
		(at -3.2 5.2)
		(size 0.4 0.4)
		(property pad_prop_bga)
		(layers "F.Cu" "F.Paste" "F.Mask")
		(uuid "abac82fe-0993-4518-ab99-fc0a6581520e")
	)
	(pad "R2" smd circle
		(at -2.4 5.2)
		(size 0.4 0.4)
		(property pad_prop_bga)
		(layers "F.Cu" "F.Paste" "F.Mask")
		(uuid "1783f202-0af8-4dfa-b980-fff5b9870ed9")
	)
	(pad "R3" smd circle
		(at -1.6 5.2)
		(size 0.4 0.4)
		(property pad_prop_bga)
		(layers "F.Cu" "F.Paste" "F.Mask")
		(uuid "3cffe378-5301-4fef-8e65-7903fec5912e")
	)
	(pad "R7" smd circle
		(at 1.6 5.2)
		(size 0.4 0.4)
		(property pad_prop_bga)
		(layers "F.Cu" "F.Paste" "F.Mask")
		(uuid "4d506d31-f65c-44af-a774-4c5f035c5d4f")
	)
	(pad "R8" smd circle
		(at 2.4 5.2)
		(size 0.4 0.4)
		(property pad_prop_bga)
		(layers "F.Cu" "F.Paste" "F.Mask")
		(uuid "cc52003c-8c6c-47c0-8cc2-69a180f159d2")
	)
	(pad "R9" smd circle
		(at 3.2 5.2)
		(size 0.4 0.4)
		(property pad_prop_bga)
		(layers "F.Cu" "F.Paste" "F.Mask")
		(uuid "1237b969-f331-4b3f-91b8-3f2cca41918b")
	)
	(pad "T1" smd circle
		(at -3.2 6)
		(size 0.4 0.4)
		(property pad_prop_bga)
		(layers "F.Cu" "F.Paste" "F.Mask")
		(uuid "c96dcc01-06ea-4ea1-a746-a654678a49bb")
	)
	(pad "T2" smd circle
		(at -2.4 6)
		(size 0.4 0.4)
		(property pad_prop_bga)
		(layers "F.Cu" "F.Paste" "F.Mask")
		(uuid "ea341019-b4cd-4fa5-a7f7-fbc3250687ce")
	)
	(pad "T3" smd circle
		(at -1.6 6)
		(size 0.4 0.4)
		(property pad_prop_bga)
		(layers "F.Cu" "F.Paste" "F.Mask")
		(uuid "00884795-cd50-4c5c-a2ca-8e4f7e60c3f6")
	)
	(pad "T7" smd circle
		(at 1.6 6)
		(size 0.4 0.4)
		(property pad_prop_bga)
		(layers "F.Cu" "F.Paste" "F.Mask")
		(uuid "d72fc798-d305-40f5-8646-69600147df9f")
	)
	(pad "T8" smd circle
		(at 2.4 6)
		(size 0.4 0.4)
		(property pad_prop_bga)
		(layers "F.Cu" "F.Paste" "F.Mask")
		(uuid "4135eb83-5553-4093-85f5-f38814019704")
	)
	(pad "T9" smd circle
		(at 3.2 6)
		(size 0.4 0.4)
		(property pad_prop_bga)
		(layers "F.Cu" "F.Paste" "F.Mask")
		(uuid "270003d3-c0e6-4ae8-a90e-cf74e8443803")
	)
	(model "${KIPRJMOD}/kicad-libraries/3dmodels/BGA-96_7.5x13.5mm.STEP"
		(offset
			(xyz 0 0 0)
		)
		(scale
			(xyz 1 1 1)
		)
		(rotate
			(xyz -90 0 0)
		)
	)
)
