(footprint "Package_WQFN-20_EP_3x4_Pitch0.5mm"
	(version 20240108)
	(generator "pcbnew")
	(generator_version "8.0")
	(layer "F.Cu")
	(property "Reference" "REF**"
		(at 0 -3.55 0)
		(unlocked yes)
		(layer "F.SilkS")
		(uuid "04a36b6d-1e43-4602-be91-74f20c6a4535")
		(effects
			(font
				(size 1 1)
				(thickness 0.15)
			)
		)
	)
	(property "Value" "Package_WQFN-20_EP_3x4_Pitch0.5mm"
		(at 0 3.55 0)
		(unlocked yes)
		(layer "F.Fab")
		(uuid "28489492-7d05-4ab4-95c7-80e84652400f")
		(effects
			(font
				(size 1 1)
				(thickness 0.15)
			)
		)
	)
	(property "Footprint" ""
		(at 0 0 0)
		(unlocked yes)
		(layer "F.Fab")
		(hide yes)
		(uuid "0df0c379-a9c7-483b-a1fc-24bac88a3418")
		(effects
			(font
				(size 1.27 1.27)
			)
		)
	)
	(property "Datasheet" ""
		(at 0 0 0)
		(unlocked yes)
		(layer "F.Fab")
		(hide yes)
		(uuid "f85ae51a-4190-46ed-9d71-c39fd1f11cae")
		(effects
			(font
				(size 1.27 1.27)
			)
		)
	)
	(property "Description" ""
		(at 0 0 0)
		(unlocked yes)
		(layer "F.Fab")
		(hide yes)
		(uuid "9e83a659-7922-41c7-b0d9-f01819517884")
		(effects
			(font
				(size 1.27 1.27)
			)
		)
	)
	(attr smd)
	(fp_line
		(start -1.65 2.15)
		(end -1.65 1.75)
		(stroke
			(width 0.12)
			(type default)
		)
		(layer "F.SilkS")
		(uuid "415623a4-e422-494d-897b-abbb7570625d")
	)
	(fp_line
		(start -1.25 -2.15)
		(end -1.8 -2.15)
		(stroke
			(width 0.12)
			(type default)
		)
		(layer "F.SilkS")
		(uuid "5d646a3d-43a7-43e6-b88e-b343ae3690c6")
	)
	(fp_line
		(start -1.25 2.15)
		(end -1.65 2.15)
		(stroke
			(width 0.12)
			(type default)
		)
		(layer "F.SilkS")
		(uuid "c6a382ce-416e-401c-a925-520a4045b09d")
	)
	(fp_line
		(start 1.25 -2.15)
		(end 1.65 -2.15)
		(stroke
			(width 0.12)
			(type default)
		)
		(layer "F.SilkS")
		(uuid "45e529f5-48cd-4bb5-a59c-1f9b9108bf36")
	)
	(fp_line
		(start 1.25 2.15)
		(end 1.65 2.15)
		(stroke
			(width 0.12)
			(type default)
		)
		(layer "F.SilkS")
		(uuid "e3923b83-52ae-493b-9456-c5a74e3d971c")
	)
	(fp_line
		(start 1.65 -2.15)
		(end 1.65 -1.75)
		(stroke
			(width 0.12)
			(type default)
		)
		(layer "F.SilkS")
		(uuid "11eee1d3-6ef4-4287-a289-39f06f2d5842")
	)
	(fp_line
		(start 1.65 2.15)
		(end 1.65 1.75)
		(stroke
			(width 0.12)
			(type default)
		)
		(layer "F.SilkS")
		(uuid "ea9c8976-7898-4beb-97ba-c437759b84f3")
	)
	(fp_line
		(start -2.05 -2.55)
		(end 2.05 -2.55)
		(stroke
			(width 0.05)
			(type default)
		)
		(layer "F.CrtYd")
		(uuid "8cb7806f-5021-4c7a-a344-5943e2a7c934")
	)
	(fp_line
		(start -2.05 2.55)
		(end -2.05 -2.55)
		(stroke
			(width 0.05)
			(type default)
		)
		(layer "F.CrtYd")
		(uuid "c77e0476-ee8b-4e26-b8f4-cb42de76b34a")
	)
	(fp_line
		(start 2.05 -2.55)
		(end 2.05 2.55)
		(stroke
			(width 0.05)
			(type default)
		)
		(layer "F.CrtYd")
		(uuid "6facf60c-c20e-4cd0-b379-0ba0ec0104ba")
	)
	(fp_line
		(start 2.05 2.55)
		(end -2.05 2.55)
		(stroke
			(width 0.05)
			(type default)
		)
		(layer "F.CrtYd")
		(uuid "b8d21ba9-7536-4cf8-bdd9-581879c11ca1")
	)
	(fp_line
		(start -1.5 -1)
		(end -1.5 2)
		(stroke
			(width 0.15)
			(type default)
		)
		(layer "F.Fab")
		(uuid "ded1c39c-1371-4e75-a05b-342ccbd25397")
	)
	(fp_line
		(start -1.5 2)
		(end 1.5 2)
		(stroke
			(width 0.15)
			(type default)
		)
		(layer "F.Fab")
		(uuid "10f1f8af-f52c-445b-b10f-0a8152bf16bd")
	)
	(fp_line
		(start -0.5 -2)
		(end -1.5 -1)
		(stroke
			(width 0.15)
			(type default)
		)
		(layer "F.Fab")
		(uuid "2fddf57e-29ef-43b6-8367-717ae3cef0a0")
	)
	(fp_line
		(start 1.5 -2)
		(end -0.5 -2)
		(stroke
			(width 0.15)
			(type default)
		)
		(layer "F.Fab")
		(uuid "eaa5e3e1-724e-4e44-a476-4fd312b18f4f")
	)
	(fp_line
		(start 1.5 2)
		(end 1.5 -2)
		(stroke
			(width 0.15)
			(type default)
		)
		(layer "F.Fab")
		(uuid "4e488811-0052-4482-ac75-af119afa06a0")
	)
	(fp_text user "${REFERENCE}"
		(at 0 0 0)
		(layer "F.Fab")
		(uuid "6a3151b0-bace-4c76-993d-e070e3848851")
		(effects
			(font
				(size 1 1)
				(thickness 0.15)
			)
		)
	)
	(pad "" smd rect
		(at -0.533333 -0.975)
		(size 0.000001 0.116667)
		(layers "F.Paste")
		(thermal_bridge_angle 45)
		(uuid "efec8d91-1068-4cd0-b970-efeee39b9941")
	)
	(pad "" smd rect
		(at -0.533333 -0.325)
		(size 0.000001 0.116667)
		(layers "F.Paste")
		(thermal_bridge_angle 45)
		(uuid "63e29679-8fbb-4d73-ad0d-3fedde971108")
	)
	(pad "" smd rect
		(at -0.533333 0.325)
		(size 0.000001 0.116667)
		(layers "F.Paste")
		(thermal_bridge_angle 45)
		(uuid "ec6d91a5-d42e-4910-b73e-94ef0cad8fa0")
	)
	(pad "" smd rect
		(at -0.533333 0.975)
		(size 0.000001 0.116667)
		(layers "F.Paste")
		(thermal_bridge_angle 45)
		(uuid "2725481e-8808-4f30-9570-f0888a690c01")
	)
	(pad "" smd rect
		(at 0 -0.975)
		(size 0.000001 0.116667)
		(layers "F.Paste")
		(thermal_bridge_angle 45)
		(uuid "654fb620-d8ef-47f1-9d3f-c44ed4ea999a")
	)
	(pad "" smd roundrect
		(at 0 -0.7)
		(size 1.4 1)
		(layers "F.Paste")
		(roundrect_rratio 0.15)
		(uuid "28af2c72-d0a2-48b8-b711-05f177bad803")
	)
	(pad "" smd rect
		(at 0 -0.325)
		(size 0.000001 0.116667)
		(layers "F.Paste")
		(thermal_bridge_angle 45)
		(uuid "f2305069-6d0e-4639-ac38-d905e6afd0e9")
	)
	(pad "" smd rect
		(at 0 0.325)
		(size 0.000001 0.116667)
		(layers "F.Paste")
		(thermal_bridge_angle 45)
		(uuid "71949ae4-5247-44a7-9bc2-fc2eabd3f7e6")
	)
	(pad "" smd roundrect
		(at 0 0.7)
		(size 1.4 1)
		(layers "F.Paste")
		(roundrect_rratio 0.15)
		(uuid "8a259ded-0fc1-4f23-9ff2-bc229ab8b58d")
	)
	(pad "" smd rect
		(at 0 0.975)
		(size 0.000001 0.116667)
		(layers "F.Paste")
		(thermal_bridge_angle 45)
		(uuid "928c48fb-fd03-49bb-9a80-efb691ef7870")
	)
	(pad "" smd rect
		(at 0.533333 -0.975)
		(size 0.000001 0.116667)
		(layers "F.Paste")
		(thermal_bridge_angle 45)
		(uuid "443af217-6e2b-4aa3-8cc4-3a2c9cf3aa8c")
	)
	(pad "" smd rect
		(at 0.533333 -0.325)
		(size 0.000001 0.116667)
		(layers "F.Paste")
		(thermal_bridge_angle 45)
		(uuid "e9e02351-1bec-4892-b537-43da0a3fb4db")
	)
	(pad "" smd rect
		(at 0.533333 0.325)
		(size 0.000001 0.116667)
		(layers "F.Paste")
		(thermal_bridge_angle 45)
		(uuid "ed055c70-ff57-47e1-bdd7-c2e59ab1eb64")
	)
	(pad "" smd rect
		(at 0.533333 0.975)
		(size 0.000001 0.116667)
		(layers "F.Paste")
		(thermal_bridge_angle 45)
		(uuid "1e2bc33d-f429-4c97-a393-7f734b823735")
	)
	(pad "1" smd roundrect
		(at -1.4 -1.25 90)
		(size 0.2 0.6)
		(layers "F.Cu" "F.Paste" "F.Mask")
		(roundrect_rratio 0.25)
		(thermal_bridge_angle 45)
		(uuid "0baa7d65-628c-42fb-b888-d8b2bdc5365f")
	)
	(pad "2" smd roundrect
		(at -1.4 -0.75 90)
		(size 0.2 0.6)
		(layers "F.Cu" "F.Paste" "F.Mask")
		(roundrect_rratio 0.25)
		(thermal_bridge_angle 45)
		(uuid "2ec66fa3-8f57-4de1-803c-d79bdc84ffa8")
	)
	(pad "3" smd roundrect
		(at -1.4 -0.25 90)
		(size 0.2 0.6)
		(layers "F.Cu" "F.Paste" "F.Mask")
		(roundrect_rratio 0.25)
		(thermal_bridge_angle 45)
		(uuid "04dd5475-d9f8-412c-baaa-6f8bc5b9c1c0")
	)
	(pad "4" smd roundrect
		(at -1.4 0.25 90)
		(size 0.2 0.6)
		(layers "F.Cu" "F.Paste" "F.Mask")
		(roundrect_rratio 0.25)
		(thermal_bridge_angle 45)
		(uuid "dd6e91b8-6bb1-42fc-ad45-e980a92fd5ad")
	)
	(pad "5" smd roundrect
		(at -1.4 0.75 90)
		(size 0.2 0.6)
		(layers "F.Cu" "F.Paste" "F.Mask")
		(roundrect_rratio 0.25)
		(thermal_bridge_angle 45)
		(uuid "2219255b-1153-4df4-8f79-c8e741ddb64a")
	)
	(pad "6" smd roundrect
		(at -1.4 1.25 90)
		(size 0.2 0.6)
		(layers "F.Cu" "F.Paste" "F.Mask")
		(roundrect_rratio 0.25)
		(thermal_bridge_angle 45)
		(uuid "845b51b1-8df0-4749-994f-cbc8f7f41e53")
	)
	(pad "7" smd roundrect
		(at -0.75 1.9)
		(size 0.2 0.6)
		(layers "F.Cu" "F.Paste" "F.Mask")
		(roundrect_rratio 0.25)
		(thermal_bridge_angle 45)
		(uuid "647ec84e-130b-41ff-a7a4-66a962ad0ccc")
	)
	(pad "8" smd roundrect
		(at -0.25 1.9)
		(size 0.2 0.6)
		(layers "F.Cu" "F.Paste" "F.Mask")
		(roundrect_rratio 0.25)
		(thermal_bridge_angle 45)
		(uuid "9b0378ad-819a-457f-b2e4-ef6d9aca89a6")
	)
	(pad "9" smd roundrect
		(at 0.25 1.9)
		(size 0.2 0.6)
		(layers "F.Cu" "F.Paste" "F.Mask")
		(roundrect_rratio 0.25)
		(thermal_bridge_angle 45)
		(uuid "2f68b64c-f7e8-4cce-ab9b-79bc2cb11145")
	)
	(pad "10" smd roundrect
		(at 0.75 1.9)
		(size 0.2 0.6)
		(layers "F.Cu" "F.Paste" "F.Mask")
		(roundrect_rratio 0.25)
		(thermal_bridge_angle 45)
		(uuid "cb51e232-393f-4b36-bbaa-73c9431304a6")
	)
	(pad "11" smd roundrect
		(at 1.4 1.25 90)
		(size 0.2 0.6)
		(layers "F.Cu" "F.Paste" "F.Mask")
		(roundrect_rratio 0.25)
		(thermal_bridge_angle 45)
		(uuid "a4b44729-9518-415f-bb0a-247aca6b968a")
	)
	(pad "12" smd roundrect
		(at 1.4 0.75 90)
		(size 0.2 0.6)
		(layers "F.Cu" "F.Paste" "F.Mask")
		(roundrect_rratio 0.25)
		(thermal_bridge_angle 45)
		(uuid "d5c48b6d-837f-4468-9310-78bd6d5d477d")
	)
	(pad "13" smd roundrect
		(at 1.4 0.25 90)
		(size 0.2 0.6)
		(layers "F.Cu" "F.Paste" "F.Mask")
		(roundrect_rratio 0.25)
		(thermal_bridge_angle 45)
		(uuid "966706e5-ff5e-486b-8b9a-f9acf2e698c3")
	)
	(pad "14" smd roundrect
		(at 1.4 -0.25 90)
		(size 0.2 0.6)
		(layers "F.Cu" "F.Paste" "F.Mask")
		(roundrect_rratio 0.25)
		(thermal_bridge_angle 45)
		(uuid "db1ed282-0784-452b-b649-6e9d1773c6b5")
	)
	(pad "15" smd roundrect
		(at 1.4 -0.75 90)
		(size 0.2 0.6)
		(layers "F.Cu" "F.Paste" "F.Mask")
		(roundrect_rratio 0.25)
		(thermal_bridge_angle 45)
		(uuid "b8a55d4e-45ce-48a1-954a-e7aea5c124c5")
	)
	(pad "16" smd roundrect
		(at 1.4 -1.25 90)
		(size 0.2 0.6)
		(layers "F.Cu" "F.Paste" "F.Mask")
		(roundrect_rratio 0.25)
		(thermal_bridge_angle 45)
		(uuid "6f532c94-965e-41e2-94ad-0d7393696be3")
	)
	(pad "17" smd roundrect
		(at 0.75 -1.9)
		(size 0.2 0.6)
		(layers "F.Cu" "F.Paste" "F.Mask")
		(roundrect_rratio 0.25)
		(thermal_bridge_angle 45)
		(uuid "17c2b905-5943-467f-8fd8-13a110221214")
	)
	(pad "18" smd roundrect
		(at 0.25 -1.9)
		(size 0.2 0.6)
		(layers "F.Cu" "F.Paste" "F.Mask")
		(roundrect_rratio 0.25)
		(thermal_bridge_angle 45)
		(uuid "13198916-ff56-4dbe-a3d5-f17fe5c3a22d")
	)
	(pad "19" smd roundrect
		(at -0.25 -1.9)
		(size 0.2 0.6)
		(layers "F.Cu" "F.Paste" "F.Mask")
		(roundrect_rratio 0.25)
		(thermal_bridge_angle 45)
		(uuid "98187864-9cf7-49dd-a3c2-49879b966f09")
	)
	(pad "20" smd roundrect
		(at -0.75 -1.9)
		(size 0.2 0.6)
		(layers "F.Cu" "F.Paste" "F.Mask")
		(roundrect_rratio 0.25)
		(thermal_bridge_angle 45)
		(uuid "c9c87fba-23b6-470a-be26-b8f4a0910071")
	)
	(pad "21" thru_hole circle
		(at -0.5 -1)
		(size 0.5 0.5)
		(drill 0.2)
		(property pad_prop_heatsink)
		(layers "*.Cu")
		(remove_unused_layers no)
		(uuid "be4394f6-c6c7-4bcf-897e-f600fa4ab1a5")
	)
	(pad "21" thru_hole circle
		(at -0.5 0)
		(size 0.5 0.5)
		(drill 0.2)
		(property pad_prop_heatsink)
		(layers "*.Cu")
		(remove_unused_layers no)
		(uuid "e8a378d1-b4d9-47d2-aebb-8fbaf2bab0f5")
	)
	(pad "21" thru_hole circle
		(at -0.5 1)
		(size 0.5 0.5)
		(drill 0.2)
		(property pad_prop_heatsink)
		(layers "*.Cu")
		(remove_unused_layers no)
		(uuid "887e2771-8005-454c-99a9-f5ad14cf5476")
	)
	(pad "21" smd roundrect
		(at 0 0)
		(size 1.6 2.6)
		(layers "F.Cu" "F.Mask")
		(roundrect_rratio 0.0625)
		(thermal_bridge_angle 45)
		(uuid "5f8cd0da-eb1d-4dde-bc96-98cd4211551c")
	)
	(pad "21" thru_hole circle
		(at 0.5 -1)
		(size 0.5 0.5)
		(drill 0.2)
		(property pad_prop_heatsink)
		(layers "*.Cu")
		(remove_unused_layers no)
		(uuid "fb298832-f2ba-4b46-8e48-0b08bba99bff")
	)
	(pad "21" thru_hole circle
		(at 0.5 0)
		(size 0.5 0.5)
		(drill 0.2)
		(property pad_prop_heatsink)
		(layers "*.Cu")
		(remove_unused_layers no)
		(uuid "0e7debcf-4aa2-483d-8d91-aa8343b6a8fb")
	)
	(pad "21" thru_hole circle
		(at 0.5 1)
		(size 0.5 0.5)
		(drill 0.2)
		(property pad_prop_heatsink)
		(layers "*.Cu")
		(remove_unused_layers no)
		(uuid "d3a70e04-dce1-4be5-9c55-32520d118c39")
	)
	(model "${KIPRJMOD}/kicad-libraries/3dmodels/RVC0020A.stp"
		(offset
			(xyz 0 0 0)
		)
		(scale
			(xyz 1 1 1)
		)
		(rotate
			(xyz 0 0 0)
		)
	)
)